hdl/testbench/matmul/mult_tb.vcd
$date
  Thu Jul 22 12:00:33 2021
$end
$version
  GHDL v0
$end
$timescale
  1 fs
$end
$scope module standard $end
$upscope $end
$scope module std_logic_1164 $end
$upscope $end
$scope module numeric_std $end
$upscope $end
$scope module math_real $end
$upscope $end
$scope module textio $end
$upscope $end
$scope module mult_pkg $end
$upscope $end
$scope module mult_tb $end
$var reg 1 ! clk_s $end
$var reg 1 " rst_s $end
$var reg 1 # v_i_s $end
$var reg 1 $ v_o_s $end
$var reg 1 % valid_tr $end
$var reg 32 & a_s[31:0] $end
$var reg 9 ' k_s[8:0] $end
$var reg 32 ( b_s[31:0] $end
$var reg 32 ) c_s[31:0] $end
$var reg 32 * c_acc_s[31:0] $end
$var reg 32 + my_out_s[31:0] $end
$scope module mac_fofb_inst $end
$var reg 1 , clk_i $end
$var reg 1 - rst_n_i $end
$var reg 1 . valid_i $end
$var reg 32 / coeff_a_dat_i[31:0] $end
$var reg 32 0 coeff_b_dat_i[31:0] $end
$var reg 9 1 coeff_k_addr_i[8:0] $end
$var reg 32 2 c_o[31:0] $end
$var reg 1 3 valid_debug_o $end
$var reg 1 4 valid_end_o $end
$scope module gen_matrix_multiplication(0) $end
$scope module matrix_multiplication_inst $end
$var reg 1 5 clk_i $end
$var reg 1 6 rst_n_i $end
$var reg 1 7 valid_i $end
$var reg 32 8 coeff_a_dat_i[31:0] $end
$var reg 32 9 coeff_b_dat_i[31:0] $end
$var reg 9 : coeff_k_addr_i[8:0] $end
$var reg 9 ; coeff_k_addr_o[8:0] $end
$var reg 32 < c_o[31:0] $end
$var reg 1 = valid_debug_o $end
$var reg 1 > valid_end_o $end
$var reg 1 ? clr_s $end
$var reg 1 @ v_i_s $end
$var reg 1 A v_reg_s $end
$var reg 1 B v_o_s $end
$var reg 32 C a_s[31:0] $end
$var reg 32 D a_reg_s[31:0] $end
$var reg 32 E coeff_b_dat_s[31:0] $end
$var reg 9 F coeff_k_addr_s[8:0] $end
$var reg 32 G coeff_y_dat_s[31:0] $end
$var reg 9 H coeff_y_addr_s[8:0] $end
$var integer 32 I cnt $end
$scope module matmul_inst $end
$var reg 1 J clk_i $end
$var reg 1 K rst_n_i $end
$var reg 1 L clear_acc_i $end
$var reg 1 M valid_i $end
$var reg 32 N a_i[31:0] $end
$var reg 32 O b_i[31:0] $end
$var reg 32 P c_o[31:0] $end
$var reg 1 Q valid_o $end
$var reg 32 R a_reg_s[31:0] $end
$var reg 32 S b_reg_s[31:0] $end
$var reg 64 T mult_reg_s[63:0] $end
$var reg 68 U adder_out_s[67:0] $end
$var reg 68 V adder_reg1_s[67:0] $end
$var reg 68 W adder_reg2_s[67:0] $end
$var reg 1 X valid_reg1_s $end
$var reg 1 Y valid_reg2_s $end
$var reg 1 Z valid_reg3_s $end
$var reg 1 [ valid_reg4_s $end
$var reg 1 \ valid_reg5_s $end
$upscope $end
$upscope $end
$upscope $end
$upscope $end
$upscope $end
$enddefinitions $end
#0
0!
0"
0#
U$
0%
b00000000000000000000000000000000 &
b000000000 '
b00000000000000000000000000000000 (
bUUUUUUUUUUUUUUUUUUUUUUUUUUUUUUUU )
b00000000000000000000000000000000 *
b00000000000000000000000000000000 +
0,
0-
0.
b00000000000000000000000000000000 /
b00000000000000000000000000000000 0
b000000000 1
bUUUUUUUUUUUUUUUUUUUUUUUUUUUUUUUU 2
U3
U4
05
06
07
b00000000000000000000000000000000 8
b00000000000000000000000000000000 9
b000000000 :
bUUUUUUUUU ;
bUUUUUUUUUUUUUUUUUUUUUUUUUUUUUUUU <
U=
U>
0?
0@
0A
UB
b00000000000000000000000000000000 C
b00000000000000000000000000000000 D
b00000000000000000000000000000000 E
b000000000 F
b00000000000000000000000000000000 G
b000000000 H
b0 I
0J
0K
0L
0M
b00000000000000000000000000000000 N
b00000000000000000000000000000000 O
bUUUUUUUUUUUUUUUUUUUUUUUUUUUUUUUU P
UQ
b00000000000000000000000000000000 R
b00000000000000000000000000000000 S
b0000000000000000000000000000000000000000000000000000000000000000 T
b00000000000000000000000000000000000000000000000000000000000000000000 U
b00000000000000000000000000000000000000000000000000000000000000000000 V
b00000000000000000000000000000000000000000000000000000000000000000000 W
UX
UY
UZ
U[
U\
#125000000000
1!
1"
0$
1,
1-
03
04
15
16
0=
0>
1J
1K
0X
0Y
0Z
0[
0\
#250000000000
0!
0,
05
0J
#375000000000
1!
U$
b00000000000000000000000000000000 )
1,
b00000000000000000000000000000000 2
U3
15
b000000000 ;
b00000000000000000000000000000000 <
U=
0B
1J
b00000000000000000000000000000000 P
0Q
#500000000000
0!
1%
0,
05
0J
#625000000000
1!
1#
0$
b11111111111111111111111111111100 &
b00000000000000000000000000000001 (
1,
1.
b11111111111111111111111111111100 /
b00000000000000000000000000000001 0
03
15
17
b11111111111111111111111111111100 8
b00000000000000000000000000000001 9
0=
1J
#750000000000
0!
0%
0,
05
0J
#875000000000
1!
0#
1,
0.
15
07
1A
b11111111111111111111111111111100 D
b00000000000000000000000000000001 E
1J
b00000000000000000000000000000001 O
#1000000000000
0!
1%
0,
05
0J
#1125000000000
1!
1#
b00000000000000000000000000000111 &
b000000001 '
b11111111111111111111111111111100 (
1,
1.
b00000000000000000000000000000111 /
b11111111111111111111111111111100 0
b000000001 1
15
17
b00000000000000000000000000000111 8
b11111111111111111111111111111100 9
b000000001 :
1@
0A
b11111111111111111111111111111100 C
1J
1M
b11111111111111111111111111111100 N
b00000000000000000000000000000001 S
#1250000000000
0!
0%
0,
05
0J
#1375000000000
1!
0#
1,
0.
15
07
0@
1A
b00000000000000000000000000000111 D
b11111111111111111111111111111100 E
b000000001 F
1J
0M
b11111111111111111111111111111100 O
b11111111111111111111111111111100 R
1X
#1500000000000
0!
1%
0,
05
0J
#1625000000000
1!
1#
b11111111111111111111111111111101 &
b000000010 '
b11111111111111111111111111111000 (
1,
1.
b11111111111111111111111111111101 /
b11111111111111111111111111111000 0
b000000010 1
15
17
b11111111111111111111111111111101 8
b11111111111111111111111111111000 9
b000000010 :
b000000001 ;
1@
0A
b00000000000000000000000000000111 C
1J
1M
b00000000000000000000000000000111 N
b11111111111111111111111111111100 S
b1111111111111111111111111111111111111111111111111111111111111100 T
0X
1Y
#1750000000000
0!
0%
0,
05
0J
#1875000000000
1!
0#
1,
0.
15
07
0@
1A
b11111111111111111111111111111101 D
b11111111111111111111111111111000 E
b000000010 F
1J
0M
b11111111111111111111111111111000 O
b00000000000000000000000000000111 R
b0000000000000000000000000000000000000000000000000000000000010000 T
b11111111111111111111111111111111111111111111111111111111111111111100 U
1X
0Y
1Z
#2000000000000
0!
1%
0,
05
0J
#2125000000000
1!
1#
b00000000000000000000000000000110 &
b000000011 '
b11111111111111111111111111111110 (
1,
1.
b00000000000000000000000000000110 /
b11111111111111111111111111111110 0
b000000011 1
15
17
b00000000000000000000000000000110 8
b11111111111111111111111111111110 9
b000000011 :
b000000010 ;
1@
0A
b11111111111111111111111111111101 C
1J
1M
b11111111111111111111111111111101 N
b11111111111111111111111111111000 S
b1111111111111111111111111111111111111111111111111111111111100100 T
b11111111111111111111111111111111111111111111111111111111111111111100 V
0X
1Y
0Z
1[
#2250000000000
0!
0%
0,
05
0J
#2375000000000
1!
0#
1,
0.
15
07
0@
1A
b00000000000000000000000000000110 D
b11111111111111111111111111111110 E
b000000011 F
1J
0M
b11111111111111111111111111111110 O
b11111111111111111111111111111101 R
b1111111111111111111111111111111111111111111111111111111111001000 T
b11111111111111111111111111111111111111111111111111111111111111100000 U
b11111111111111111111111111111111111111111111111111111111111111111100 W
1X
0Y
1Z
0[
1\
#2500000000000
0!
1%
0,
05
0J
#2625000000000
1!
1#
b11111111111111111111111111111010 &
b000000100 '
b00000000000000000000000000000010 (
b11111111111111111111111111111100 )
1,
1.
b11111111111111111111111111111010 /
b00000000000000000000000000000010 0
b000000100 1
b11111111111111111111111111111100 2
15
17
b11111111111111111111111111111010 8
b00000000000000000000000000000010 9
b000000100 :
b000000011 ;
b11111111111111111111111111111100 <
1@
0A
1B
b00000000000000000000000000000110 C
1J
1M
b00000000000000000000000000000110 N
b11111111111111111111111111111100 P
1Q
b11111111111111111111111111111110 S
b0000000000000000000000000000000000000000000000000000000000011000 T
b11111111111111111111111111111111111111111111111111111111111111100000 V
0X
1Y
0Z
1[
0\
#2750000000000
0!
0%
0,
05
0J
#2875000000000
1!
0#
1$
1,
0.
13
15
07
1=
0@
1A
0B
b11111111111111111111111111111010 D
b00000000000000000000000000000010 E
b000000100 F
b1 I
1J
0M
b00000000000000000000000000000010 O
0Q
b00000000000000000000000000000110 R
b0000000000000000000000000000000000000000000000000000000000000110 T
b11111111111111111111111111111111111111111111111111111111111111111000 U
b11111111111111111111111111111111111111111111111111111111111111100000 W
1X
0Y
1Z
0[
1\
#3000000000000
0!
1%
0,
05
0J
#3125000000000
1!
1#
0$
b11111111111111111111111111111111 &
b000000101 '
b00000000000000000000000000000111 (
b11111111111111111111111111100000 )
1,
1.
b11111111111111111111111111111111 /
b00000000000000000000000000000111 0
b000000101 1
b11111111111111111111111111100000 2
03
15
17
b11111111111111111111111111111111 8
b00000000000000000000000000000111 9
b000000101 :
b000000100 ;
b11111111111111111111111111100000 <
0=
1@
0A
1B
b11111111111111111111111111111010 C
1J
1M
b11111111111111111111111111111010 N
b11111111111111111111111111100000 P
1Q
b00000000000000000000000000000010 S
b1111111111111111111111111111111111111111111111111111111111110100 T
b11111111111111111111111111111111111111111111111111111111111111111000 V
0X
1Y
0Z
1[
0\
#3250000000000
0!
0%
0,
05
0J
#3375000000000
1!
0#
1$
1,
0.
13
15
07
1=
0@
1A
0B
b11111111111111111111111111111111 D
b00000000000000000000000000000111 E
b000000101 F
b10 I
1J
0M
b00000000000000000000000000000111 O
0Q
b11111111111111111111111111111010 R
b0000000000000000000000000000000000000000000000000000000000001100 T
b11111111111111111111111111111111111111111111111111111111111111101100 U
b11111111111111111111111111111111111111111111111111111111111111111000 W
1X
0Y
1Z
0[
1\
#3500000000000
0!
1%
0,
05
0J
#3625000000000
1!
1#
0$
b11111111111111111111111111111010 &
b000000110 '
b11111111111111111111111111111111 (
b11111111111111111111111111111000 )
1,
1.
b11111111111111111111111111111010 /
b11111111111111111111111111111111 0
b000000110 1
b11111111111111111111111111111000 2
03
15
17
b11111111111111111111111111111010 8
b11111111111111111111111111111111 9
b000000110 :
b000000101 ;
b11111111111111111111111111111000 <
0=
1@
0A
1B
b11111111111111111111111111111111 C
1J
1M
b11111111111111111111111111111111 N
b11111111111111111111111111111000 P
1Q
b00000000000000000000000000000111 S
b1111111111111111111111111111111111111111111111111111111111110100 T
b11111111111111111111111111111111111111111111111111111111111111101100 V
0X
1Y
0Z
1[
0\
#3750000000000
0!
0%
0,
05
0J
#3875000000000
1!
0#
1$
1,
0.
13
15
07
1=
0@
1A
0B
b11111111111111111111111111111010 D
b11111111111111111111111111111111 E
b000000110 F
b11 I
1J
0M
b11111111111111111111111111111111 O
0Q
b11111111111111111111111111111111 R
b1111111111111111111111111111111111111111111111111111111111010110 T
b11111111111111111111111111111111111111111111111111111111111111100000 U
b11111111111111111111111111111111111111111111111111111111111111101100 W
1X
0Y
1Z
0[
1\
#4000000000000
0!
1%
0,
05
0J
#4125000000000
1!
1#
0$
b00000000000000000000000000000111 &
b000000111 '
b00000000000000000000000000000010 (
b11111111111111111111111111101100 )
1,
1.
b00000000000000000000000000000111 /
b00000000000000000000000000000010 0
b000000111 1
b11111111111111111111111111101100 2
03
15
17
b00000000000000000000000000000111 8
b00000000000000000000000000000010 9
b000000111 :
b000000110 ;
b11111111111111111111111111101100 <
0=
1@
0A
1B
b11111111111111111111111111111010 C
1J
1M
b11111111111111111111111111111010 N
b11111111111111111111111111101100 P
1Q
b11111111111111111111111111111111 S
b1111111111111111111111111111111111111111111111111111111111111001 T
b11111111111111111111111111111111111111111111111111111111111111100000 V
0X
1Y
0Z
1[
0\
#4250000000000
0!
0%
0,
05
0J
#4375000000000
1!
0#
1$
1,
0.
13
15
07
1=
0@
1A
0B
b00000000000000000000000000000111 D
b00000000000000000000000000000010 E
b000000111 F
b100 I
1J
0M
b00000000000000000000000000000010 O
0Q
b11111111111111111111111111111010 R
b0000000000000000000000000000000000000000000000000000000000000001 T
b11111111111111111111111111111111111111111111111111111111111111011001 U
b11111111111111111111111111111111111111111111111111111111111111100000 W
1X
0Y
1Z
0[
1\
#4500000000000
0!
1%
0,
05
0J
#4625000000000
1!
1#
0$
b00000000000000000000000000000110 &
b000001000 '
b00000000000000000000000000000110 (
b11111111111111111111111111100000 )
1,
1.
b00000000000000000000000000000110 /
b00000000000000000000000000000110 0
b000001000 1
b11111111111111111111111111100000 2
03
15
17
b00000000000000000000000000000110 8
b00000000000000000000000000000110 9
b000001000 :
b000000111 ;
b11111111111111111111111111100000 <
0=
1@
0A
1B
b00000000000000000000000000000111 C
1J
1M
b00000000000000000000000000000111 N
b11111111111111111111111111100000 P
1Q
b00000000000000000000000000000010 S
b0000000000000000000000000000000000000000000000000000000000000110 T
b11111111111111111111111111111111111111111111111111111111111111011001 V
0X
1Y
0Z
1[
0\
#4750000000000
0!
0%
0,
05
0J
#4875000000000
1!
0#
1$
1,
0.
13
15
07
1=
0@
1A
0B
b00000000000000000000000000000110 D
b00000000000000000000000000000110 E
b000001000 F
b101 I
1J
0M
b00000000000000000000000000000110 O
0Q
b00000000000000000000000000000111 R
b1111111111111111111111111111111111111111111111111111111111110100 T
b11111111111111111111111111111111111111111111111111111111111111011111 U
b11111111111111111111111111111111111111111111111111111111111111011001 W
1X
0Y
1Z
0[
1\
#5000000000000
0!
1%
0,
05
0J
#5125000000000
1!
1#
0$
b11111111111111111111111111110110 &
b000001001 '
b11111111111111111111111111111001 (
b11111111111111111111111111011001 )
1,
1.
b11111111111111111111111111110110 /
b11111111111111111111111111111001 0
b000001001 1
b11111111111111111111111111011001 2
03
15
17
b11111111111111111111111111110110 8
b11111111111111111111111111111001 9
b000001001 :
b000001000 ;
b11111111111111111111111111011001 <
0=
1@
0A
1B
b00000000000000000000000000000110 C
1J
1M
b00000000000000000000000000000110 N
b11111111111111111111111111011001 P
1Q
b00000000000000000000000000000110 S
b0000000000000000000000000000000000000000000000000000000000001110 T
b11111111111111111111111111111111111111111111111111111111111111011111 V
0X
1Y
0Z
1[
0\
#5250000000000
0!
0%
0,
05
0J
#5375000000000
1!
0#
1$
1,
0.
13
15
07
1=
0@
1A
0B
b11111111111111111111111111110110 D
b11111111111111111111111111111001 E
b000001001 F
b110 I
1J
0M
b11111111111111111111111111111001 O
0Q
b00000000000000000000000000000110 R
b0000000000000000000000000000000000000000000000000000000000101010 T
b11111111111111111111111111111111111111111111111111111111111111101101 U
b11111111111111111111111111111111111111111111111111111111111111011111 W
1X
0Y
1Z
0[
1\
#5500000000000
0!
1%
0,
05
0J
#5625000000000
1!
1#
0$
b00000000000000000000000000000010 &
b000001010 '
b00000000000000000000000000001010 (
b11111111111111111111111111011111 )
1,
1.
b00000000000000000000000000000010 /
b00000000000000000000000000001010 0
b000001010 1
b11111111111111111111111111011111 2
03
15
17
b00000000000000000000000000000010 8
b00000000000000000000000000001010 9
b000001010 :
b000001001 ;
b11111111111111111111111111011111 <
0=
1@
0A
1B
b11111111111111111111111111110110 C
1J
1M
b11111111111111111111111111110110 N
b11111111111111111111111111011111 P
1Q
b11111111111111111111111111111001 S
b0000000000000000000000000000000000000000000000000000000000100100 T
b11111111111111111111111111111111111111111111111111111111111111101101 V
0X
1Y
0Z
1[
0\
#5750000000000
0!
0%
0,
05
0J
#5875000000000
1!
0#
1$
1,
0.
13
15
07
1=
0@
1A
0B
b00000000000000000000000000000010 D
b00000000000000000000000000001010 E
b000001010 F
b111 I
1J
0M
b00000000000000000000000000001010 O
0Q
b11111111111111111111111111110110 R
b1111111111111111111111111111111111111111111111111111111111010110 T
b00000000000000000000000000000000000000000000000000000000000000010001 U
b11111111111111111111111111111111111111111111111111111111111111101101 W
1X
0Y
1Z
0[
1\
#6000000000000
0!
1%
0,
05
0J
#6125000000000
1!
1#
0$
b11111111111111111111111111110110 &
b000001011 '
b11111111111111111111111111111010 (
b11111111111111111111111111101101 )
1,
1.
b11111111111111111111111111110110 /
b11111111111111111111111111111010 0
b000001011 1
b11111111111111111111111111101101 2
03
15
17
b11111111111111111111111111110110 8
b11111111111111111111111111111010 9
b000001011 :
b000001010 ;
b11111111111111111111111111101101 <
0=
1@
0A
1B
b00000000000000000000000000000010 C
1J
1M
b00000000000000000000000000000010 N
b11111111111111111111111111101101 P
1Q
b00000000000000000000000000001010 S
b0000000000000000000000000000000000000000000000000000000001000110 T
b00000000000000000000000000000000000000000000000000000000000000010001 V
0X
1Y
0Z
1[
0\
#6250000000000
0!
0%
0,
05
0J
#6375000000000
1!
0#
1$
1,
0.
13
15
07
1=
0@
1A
0B
b11111111111111111111111111110110 D
b11111111111111111111111111111010 E
b000001011 F
b1000 I
1J
0M
b11111111111111111111111111111010 O
0Q
b00000000000000000000000000000010 R
b1111111111111111111111111111111111111111111111111111111110011100 T
b00000000000000000000000000000000000000000000000000000000000001010111 U
b00000000000000000000000000000000000000000000000000000000000000010001 W
1X
0Y
1Z
0[
1\
#6500000000000
0!
1%
0,
05
0J
#6625000000000
1!
1#
0$
b11111111111111111111111111110111 &
b000001100 '
b00000000000000000000000000001001 (
b00000000000000000000000000010001 )
1,
1.
b11111111111111111111111111110111 /
b00000000000000000000000000001001 0
b000001100 1
b00000000000000000000000000010001 2
03
15
17
b11111111111111111111111111110111 8
b00000000000000000000000000001001 9
b000001100 :
b000001011 ;
b00000000000000000000000000010001 <
0=
1@
0A
1B
b11111111111111111111111111110110 C
1J
1M
b11111111111111111111111111110110 N
b00000000000000000000000000010001 P
1Q
b11111111111111111111111111111010 S
b0000000000000000000000000000000000000000000000000000000000010100 T
b00000000000000000000000000000000000000000000000000000000000001010111 V
0X
1Y
0Z
1[
0\
#6750000000000
0!
0%
0,
05
0J
#6875000000000
1!
0#
1$
1,
0.
13
15
07
1=
0@
1A
0B
b11111111111111111111111111110111 D
b00000000000000000000000000001001 E
b000001100 F
b1001 I
1J
0M
b00000000000000000000000000001001 O
0Q
b11111111111111111111111111110110 R
b1111111111111111111111111111111111111111111111111111111111110100 T
b00000000000000000000000000000000000000000000000000000000000001101011 U
b00000000000000000000000000000000000000000000000000000000000001010111 W
1X
0Y
1Z
0[
1\
#7000000000000
0!
1%
0,
05
0J
#7125000000000
1!
1#
0$
b00000000000000000000000000000100 &
b000001101 '
b00000000000000000000000000000011 (
b00000000000000000000000001010111 )
1,
1.
b00000000000000000000000000000100 /
b00000000000000000000000000000011 0
b000001101 1
b00000000000000000000000001010111 2
03
15
17
b00000000000000000000000000000100 8
b00000000000000000000000000000011 9
b000001101 :
b000001100 ;
b00000000000000000000000001010111 <
0=
1@
0A
1B
b11111111111111111111111111110111 C
1J
1M
b11111111111111111111111111110111 N
b00000000000000000000000001010111 P
1Q
b00000000000000000000000000001001 S
b0000000000000000000000000000000000000000000000000000000000111100 T
b00000000000000000000000000000000000000000000000000000000000001101011 V
0X
1Y
0Z
1[
0\
#7250000000000
0!
0%
0,
05
0J
#7375000000000
1!
0#
1$
1,
0.
13
15
07
1=
0@
1A
0B
b00000000000000000000000000000100 D
b00000000000000000000000000000011 E
b000001101 F
b1010 I
1J
0M
b00000000000000000000000000000011 O
0Q
b11111111111111111111111111110111 R
b1111111111111111111111111111111111111111111111111111111110100110 T
b00000000000000000000000000000000000000000000000000000000000010100111 U
b00000000000000000000000000000000000000000000000000000000000001101011 W
1X
0Y
1Z
0[
1\
#7500000000000
0!
1%
0,
05
0J
#7625000000000
1!
1#
0$
b00000000000000000000000000001001 &
b000001110 '
b00000000000000000000000000001001 (
b00000000000000000000000001101011 )
1,
1.
b00000000000000000000000000001001 /
b00000000000000000000000000001001 0
b000001110 1
b00000000000000000000000001101011 2
03
15
17
b00000000000000000000000000001001 8
b00000000000000000000000000001001 9
b000001110 :
b000001101 ;
b00000000000000000000000001101011 <
0=
1@
0A
1B
b00000000000000000000000000000100 C
1J
1M
b00000000000000000000000000000100 N
b00000000000000000000000001101011 P
1Q
b00000000000000000000000000000011 S
b1111111111111111111111111111111111111111111111111111111110101111 T
b00000000000000000000000000000000000000000000000000000000000010100111 V
0X
1Y
0Z
1[
0\
#7750000000000
0!
0%
0,
05
0J
#7875000000000
1!
0#
1$
1,
0.
13
15
07
1=
0@
1A
0B
b00000000000000000000000000001001 D
b00000000000000000000000000001001 E
b000001110 F
b1011 I
1J
0M
b00000000000000000000000000001001 O
0Q
b00000000000000000000000000000100 R
b1111111111111111111111111111111111111111111111111111111111100101 T
b00000000000000000000000000000000000000000000000000000000000001010110 U
b00000000000000000000000000000000000000000000000000000000000010100111 W
1X
0Y
1Z
0[
1\
#8000000000000
0!
1%
0,
05
0J
#8125000000000
1!
1#
0$
b00000000000000000000000000001010 &
b000001111 '
b00000000000000000000000000000100 (
b00000000000000000000000010100111 )
1,
1.
b00000000000000000000000000001010 /
b00000000000000000000000000000100 0
b000001111 1
b00000000000000000000000010100111 2
03
15
17
b00000000000000000000000000001010 8
b00000000000000000000000000000100 9
b000001111 :
b000001110 ;
b00000000000000000000000010100111 <
0=
1@
0A
1B
b00000000000000000000000000001001 C
1J
1M
b00000000000000000000000000001001 N
b00000000000000000000000010100111 P
1Q
b00000000000000000000000000001001 S
b0000000000000000000000000000000000000000000000000000000000001100 T
b00000000000000000000000000000000000000000000000000000000000001010110 V
0X
1Y
0Z
1[
0\
#8250000000000
0!
0%
0,
05
0J
#8375000000000
1!
0#
1$
1,
0.
13
15
07
1=
0@
1A
0B
b00000000000000000000000000001010 D
b00000000000000000000000000000100 E
b000001111 F
b1100 I
1J
0M
b00000000000000000000000000000100 O
0Q
b00000000000000000000000000001001 R
b0000000000000000000000000000000000000000000000000000000000100100 T
b00000000000000000000000000000000000000000000000000000000000001100010 U
b00000000000000000000000000000000000000000000000000000000000001010110 W
1X
0Y
1Z
0[
1\
#8500000000000
0!
1%
0,
05
0J
#8625000000000
1!
1#
0$
b11111111111111111111111111110110 &
b000010000 '
b00000000000000000000000000000000 (
b00000000000000000000000001010110 )
1,
1.
b11111111111111111111111111110110 /
b00000000000000000000000000000000 0
b000010000 1
b00000000000000000000000001010110 2
03
15
17
b11111111111111111111111111110110 8
b00000000000000000000000000000000 9
b000010000 :
b000001111 ;
b00000000000000000000000001010110 <
0=
1@
0A
1B
b00000000000000000000000000001010 C
1J
1M
b00000000000000000000000000001010 N
b00000000000000000000000001010110 P
1Q
b00000000000000000000000000000100 S
b0000000000000000000000000000000000000000000000000000000001010001 T
b00000000000000000000000000000000000000000000000000000000000001100010 V
0X
1Y
0Z
1[
0\
#8750000000000
0!
0%
0,
05
0J
#8875000000000
1!
0#
1$
1,
0.
13
15
07
1=
0@
1A
0B
b11111111111111111111111111110110 D
b00000000000000000000000000000000 E
b000010000 F
b1101 I
1J
0M
b00000000000000000000000000000000 O
0Q
b00000000000000000000000000001010 R
b0000000000000000000000000000000000000000000000000000000000100100 T
b00000000000000000000000000000000000000000000000000000000000010110011 U
b00000000000000000000000000000000000000000000000000000000000001100010 W
1X
0Y
1Z
0[
1\
#9000000000000
0!
1%
0,
05
0J
#9125000000000
1!
1#
0$
b00000000000000000000000000000110 &
b000010001 '
b11111111111111111111111111111000 (
b00000000000000000000000001100010 )
1,
1.
b00000000000000000000000000000110 /
b11111111111111111111111111111000 0
b000010001 1
b00000000000000000000000001100010 2
03
15
17
b00000000000000000000000000000110 8
b11111111111111111111111111111000 9
b000010001 :
b000010000 ;
b00000000000000000000000001100010 <
0=
1@
0A
1B
b11111111111111111111111111110110 C
1J
1M
b11111111111111111111111111110110 N
b00000000000000000000000001100010 P
1Q
b00000000000000000000000000000000 S
b0000000000000000000000000000000000000000000000000000000000101000 T
b00000000000000000000000000000000000000000000000000000000000010110011 V
0X
1Y
0Z
1[
0\
#9250000000000
0!
0%
0,
05
0J
#9375000000000
1!
0#
1$
1,
0.
13
15
07
1=
0@
1A
0B
b00000000000000000000000000000110 D
b11111111111111111111111111111000 E
b000010001 F
b1110 I
1J
0M
b11111111111111111111111111111000 O
0Q
b11111111111111111111111111110110 R
b0000000000000000000000000000000000000000000000000000000000000000 T
b00000000000000000000000000000000000000000000000000000000000011011011 U
b00000000000000000000000000000000000000000000000000000000000010110011 W
1X
0Y
1Z
0[
1\
#9500000000000
0!
1%
0,
05
0J
#9625000000000
1!
1#
0$
b00000000000000000000000000000011 &
b000010010 '
b11111111111111111111111111111011 (
b00000000000000000000000010110011 )
1,
1.
b00000000000000000000000000000011 /
b11111111111111111111111111111011 0
b000010010 1
b00000000000000000000000010110011 2
03
15
17
b00000000000000000000000000000011 8
b11111111111111111111111111111011 9
b000010010 :
b000010001 ;
b00000000000000000000000010110011 <
0=
1@
0A
1B
b00000000000000000000000000000110 C
1J
1M
b00000000000000000000000000000110 N
b00000000000000000000000010110011 P
1Q
b11111111111111111111111111111000 S
b00000000000000000000000000000000000000000000000000000000000011011011 V
0X
1Y
0Z
1[
0\
#9750000000000
0!
0%
0,
05
0J
#9875000000000
1!
0#
1$
1,
0.
13
15
07
1=
0@
1A
0B
b00000000000000000000000000000011 D
b11111111111111111111111111111011 E
b000010010 F
b1111 I
1J
0M
b11111111111111111111111111111011 O
0Q
b00000000000000000000000000000110 R
b0000000000000000000000000000000000000000000000000000000001010000 T
b00000000000000000000000000000000000000000000000000000000000011011011 W
1X
0Y
1Z
0[
1\
#10000000000000
0!
1%
0,
05
0J
#10125000000000
1!
1#
0$
b11111111111111111111111111111001 &
b000010011 '
b11111111111111111111111111111111 (
b00000000000000000000000011011011 )
1,
1.
b11111111111111111111111111111001 /
b11111111111111111111111111111111 0
b000010011 1
b00000000000000000000000011011011 2
03
15
17
b11111111111111111111111111111001 8
b11111111111111111111111111111111 9
b000010011 :
b000010010 ;
b00000000000000000000000011011011 <
0=
1@
0A
1B
b00000000000000000000000000000011 C
1J
1M
b00000000000000000000000000000011 N
b00000000000000000000000011011011 P
1Q
b11111111111111111111111111111011 S
b1111111111111111111111111111111111111111111111111111111111010000 T
0X
1Y
0Z
1[
0\
#10250000000000
0!
0%
0,
05
0J
#10375000000000
1!
0#
1$
1,
0.
13
15
07
1=
0@
1A
0B
b11111111111111111111111111111001 D
b11111111111111111111111111111111 E
b000010011 F
b10000 I
1J
0M
b11111111111111111111111111111111 O
0Q
b00000000000000000000000000000011 R
b1111111111111111111111111111111111111111111111111111111111100010 T
b00000000000000000000000000000000000000000000000000000000000010101011 U
1X
0Y
1Z
0[
1\
#10500000000000
0!
1%
0,
05
0J
#10625000000000
1!
1#
0$
b00000000000000000000000000000101 &
b000010100 '
b00000000000000000000000000000011 (
1,
1.
b00000000000000000000000000000101 /
b00000000000000000000000000000011 0
b000010100 1
03
15
17
b00000000000000000000000000000101 8
b00000000000000000000000000000011 9
b000010100 :
b000010011 ;
0=
1@
0A
1B
b11111111111111111111111111111001 C
1J
1M
b11111111111111111111111111111001 N
1Q
b11111111111111111111111111111111 S
b1111111111111111111111111111111111111111111111111111111111110001 T
b00000000000000000000000000000000000000000000000000000000000010101011 V
0X
1Y
0Z
1[
0\
#10750000000000
0!
0%
0,
05
0J
#10875000000000
1!
0#
1$
1,
0.
13
15
07
1=
0@
1A
0B
b00000000000000000000000000000101 D
b00000000000000000000000000000011 E
b000010100 F
b10001 I
1J
0M
b00000000000000000000000000000011 O
0Q
b11111111111111111111111111111001 R
b1111111111111111111111111111111111111111111111111111111111111101 T
b00000000000000000000000000000000000000000000000000000000000010011100 U
b00000000000000000000000000000000000000000000000000000000000010101011 W
1X
0Y
1Z
0[
1\
#11000000000000
0!
1%
0,
05
0J
#11125000000000
1!
1#
0$
b00000000000000000000000000001010 &
b000010101 '
b00000000000000000000000000000111 (
b00000000000000000000000010101011 )
1,
1.
b00000000000000000000000000001010 /
b00000000000000000000000000000111 0
b000010101 1
b00000000000000000000000010101011 2
03
15
17
b00000000000000000000000000001010 8
b00000000000000000000000000000111 9
b000010101 :
b000010100 ;
b00000000000000000000000010101011 <
0=
1@
0A
1B
b00000000000000000000000000000101 C
1J
1M
b00000000000000000000000000000101 N
b00000000000000000000000010101011 P
1Q
b00000000000000000000000000000011 S
b0000000000000000000000000000000000000000000000000000000000000111 T
b00000000000000000000000000000000000000000000000000000000000010011100 V
0X
1Y
0Z
1[
0\
#11250000000000
0!
0%
0,
05
0J
#11375000000000
1!
0#
1$
1,
0.
13
15
07
1=
0@
1A
0B
b00000000000000000000000000001010 D
b00000000000000000000000000000111 E
b000010101 F
b10010 I
1J
0M
b00000000000000000000000000000111 O
0Q
b00000000000000000000000000000101 R
b1111111111111111111111111111111111111111111111111111111111101011 T
b00000000000000000000000000000000000000000000000000000000000010100011 U
b00000000000000000000000000000000000000000000000000000000000010011100 W
1X
0Y
1Z
0[
1\
#11500000000000
0!
1%
0,
05
0J
#11625000000000
1!
1#
0$
b11111111111111111111111111110111 &
b000010110 '
b00000000000000000000000000000101 (
b00000000000000000000000010011100 )
1,
1.
b11111111111111111111111111110111 /
b00000000000000000000000000000101 0
b000010110 1
b00000000000000000000000010011100 2
03
15
17
b11111111111111111111111111110111 8
b00000000000000000000000000000101 9
b000010110 :
b000010101 ;
b00000000000000000000000010011100 <
0=
1@
0A
1B
b00000000000000000000000000001010 C
1J
1M
b00000000000000000000000000001010 N
b00000000000000000000000010011100 P
1Q
b00000000000000000000000000000111 S
b0000000000000000000000000000000000000000000000000000000000001111 T
b00000000000000000000000000000000000000000000000000000000000010100011 V
0X
1Y
0Z
1[
0\
#11750000000000
0!
0%
0,
05
0J
