hdl/testbench/matmul/mult_tb.vcd
$date
  Thu Jul 22 14:12:51 2021
$end
$version
  GHDL v0
$end
$timescale
  1 fs
$end
$scope module standard $end
$upscope $end
$scope module std_logic_1164 $end
$upscope $end
$scope module numeric_std $end
$upscope $end
$scope module math_real $end
$upscope $end
$scope module textio $end
$upscope $end
$scope module mult_pkg $end
$upscope $end
$scope module mult_tb $end
$var reg 1 ! clk_s $end
$var reg 1 " rst_s $end
$var reg 1 # v_i_s $end
$var reg 1 $ v_o_s $end
$var reg 1 % valid_tr $end
$var reg 32 & a_s[31:0] $end
$var reg 9 ' k_s[8:0] $end
$var reg 32 ( b_s[31:0] $end
$var reg 32 ) c_s[31:0] $end
$var reg 32 * c_acc_s[31:0] $end
$var reg 32 + my_out_s[31:0] $end
$scope module gen_matrix_multiplication(0) $end
$scope module matrix_multiplication_inst $end
$var reg 1 , clk_i $end
$var reg 1 - rst_n_i $end
$var reg 1 . valid_i $end
$var reg 32 / coeff_a_dat_i[31:0] $end
$var reg 32 0 coeff_b_dat_i[31:0] $end
$var reg 9 1 coeff_k_addr_i[8:0] $end
$var reg 9 2 coeff_k_addr_o[8:0] $end
$var reg 32 3 c_o[31:0] $end
$var reg 1 4 valid_debug_o $end
$var reg 1 5 valid_end_o $end
$var reg 1 6 clr_s $end
$var reg 1 7 v_i_s $end
$var reg 1 8 v_reg_s $end
$var reg 1 9 v_o_s $end
$var reg 32 : a_s[31:0] $end
$var reg 32 ; a_reg_s[31:0] $end
$var reg 32 < coeff_b_dat_s[31:0] $end
$var reg 9 = coeff_k_addr_s[8:0] $end
$var reg 32 > coeff_y_dat_s[31:0] $end
$var reg 9 ? coeff_y_addr_s[8:0] $end
$var integer 32 @ cnt $end
$scope module matmul_inst $end
$var reg 1 A clk_i $end
$var reg 1 B rst_n_i $end
$var reg 1 C clear_acc_i $end
$var reg 1 D valid_i $end
$var reg 32 E a_i[31:0] $end
$var reg 32 F b_i[31:0] $end
$var reg 32 G c_o[31:0] $end
$var reg 1 H valid_o $end
$var reg 32 I a_reg_s[31:0] $end
$var reg 32 J b_reg_s[31:0] $end
$var reg 64 K mult_reg_s[63:0] $end
$var reg 68 L adder_out_s[67:0] $end
$var reg 68 M adder_reg1_s[67:0] $end
$var reg 68 N adder_reg2_s[67:0] $end
$var reg 1 O valid_reg1_s $end
$var reg 1 P valid_reg2_s $end
$var reg 1 Q valid_reg3_s $end
$var reg 1 R valid_reg4_s $end
$var reg 1 S valid_reg5_s $end
$upscope $end
$upscope $end
$upscope $end
$scope module gen_matrix_multiplication(1) $end
$scope module matrix_multiplication_inst $end
$var reg 1 T clk_i $end
$var reg 1 U rst_n_i $end
$var reg 1 V valid_i $end
$var reg 32 W coeff_a_dat_i[31:0] $end
$var reg 32 X coeff_b_dat_i[31:0] $end
$var reg 9 Y coeff_k_addr_i[8:0] $end
$var reg 9 Z coeff_k_addr_o[8:0] $end
$var reg 32 [ c_o[31:0] $end
$var reg 1 \ valid_debug_o $end
$var reg 1 ] valid_end_o $end
$var reg 1 ^ clr_s $end
$var reg 1 _ v_i_s $end
$var reg 1 ` v_reg_s $end
$var reg 1 a v_o_s $end
$var reg 32 b a_s[31:0] $end
$var reg 32 c a_reg_s[31:0] $end
$var reg 32 d coeff_b_dat_s[31:0] $end
$var reg 9 e coeff_k_addr_s[8:0] $end
$var reg 32 f coeff_y_dat_s[31:0] $end
$var reg 9 g coeff_y_addr_s[8:0] $end
$var integer 32 h cnt $end
$scope module matmul_inst $end
$var reg 1 i clk_i $end
$var reg 1 j rst_n_i $end
$var reg 1 k clear_acc_i $end
$var reg 1 l valid_i $end
$var reg 32 m a_i[31:0] $end
$var reg 32 n b_i[31:0] $end
$var reg 32 o c_o[31:0] $end
$var reg 1 p valid_o $end
$var reg 32 q a_reg_s[31:0] $end
$var reg 32 r b_reg_s[31:0] $end
$var reg 64 s mult_reg_s[63:0] $end
$var reg 68 t adder_out_s[67:0] $end
$var reg 68 u adder_reg1_s[67:0] $end
$var reg 68 v adder_reg2_s[67:0] $end
$var reg 1 w valid_reg1_s $end
$var reg 1 x valid_reg2_s $end
$var reg 1 y valid_reg3_s $end
$var reg 1 z valid_reg4_s $end
$var reg 1 { valid_reg5_s $end
$upscope $end
$upscope $end
$upscope $end
$scope module gen_matrix_multiplication(2) $end
$scope module matrix_multiplication_inst $end
$var reg 1 | clk_i $end
$var reg 1 } rst_n_i $end
$var reg 1 !" valid_i $end
$var reg 32 "" coeff_a_dat_i[31:0] $end
$var reg 32 #" coeff_b_dat_i[31:0] $end
$var reg 9 $" coeff_k_addr_i[8:0] $end
$var reg 9 %" coeff_k_addr_o[8:0] $end
$var reg 32 &" c_o[31:0] $end
$var reg 1 '" valid_debug_o $end
$var reg 1 (" valid_end_o $end
$var reg 1 )" clr_s $end
$var reg 1 *" v_i_s $end
$var reg 1 +" v_reg_s $end
$var reg 1 ," v_o_s $end
$var reg 32 -" a_s[31:0] $end
$var reg 32 ." a_reg_s[31:0] $end
$var reg 32 /" coeff_b_dat_s[31:0] $end
$var reg 9 0" coeff_k_addr_s[8:0] $end
$var reg 32 1" coeff_y_dat_s[31:0] $end
$var reg 9 2" coeff_y_addr_s[8:0] $end
$var integer 32 3" cnt $end
$scope module matmul_inst $end
$var reg 1 4" clk_i $end
$var reg 1 5" rst_n_i $end
$var reg 1 6" clear_acc_i $end
$var reg 1 7" valid_i $end
$var reg 32 8" a_i[31:0] $end
$var reg 32 9" b_i[31:0] $end
$var reg 32 :" c_o[31:0] $end
$var reg 1 ;" valid_o $end
$var reg 32 <" a_reg_s[31:0] $end
$var reg 32 =" b_reg_s[31:0] $end
$var reg 64 >" mult_reg_s[63:0] $end
$var reg 68 ?" adder_out_s[67:0] $end
$var reg 68 @" adder_reg1_s[67:0] $end
$var reg 68 A" adder_reg2_s[67:0] $end
$var reg 1 B" valid_reg1_s $end
$var reg 1 C" valid_reg2_s $end
$var reg 1 D" valid_reg3_s $end
$var reg 1 E" valid_reg4_s $end
$var reg 1 F" valid_reg5_s $end
$upscope $end
$upscope $end
$upscope $end
$scope module gen_matrix_multiplication(3) $end
$scope module matrix_multiplication_inst $end
$var reg 1 G" clk_i $end
$var reg 1 H" rst_n_i $end
$var reg 1 I" valid_i $end
$var reg 32 J" coeff_a_dat_i[31:0] $end
$var reg 32 K" coeff_b_dat_i[31:0] $end
$var reg 9 L" coeff_k_addr_i[8:0] $end
$var reg 9 M" coeff_k_addr_o[8:0] $end
$var reg 32 N" c_o[31:0] $end
$var reg 1 O" valid_debug_o $end
$var reg 1 P" valid_end_o $end
$var reg 1 Q" clr_s $end
$var reg 1 R" v_i_s $end
$var reg 1 S" v_reg_s $end
$var reg 1 T" v_o_s $end
$var reg 32 U" a_s[31:0] $end
$var reg 32 V" a_reg_s[31:0] $end
$var reg 32 W" coeff_b_dat_s[31:0] $end
$var reg 9 X" coeff_k_addr_s[8:0] $end
$var reg 32 Y" coeff_y_dat_s[31:0] $end
$var reg 9 Z" coeff_y_addr_s[8:0] $end
$var integer 32 [" cnt $end
$scope module matmul_inst $end
$var reg 1 \" clk_i $end
$var reg 1 ]" rst_n_i $end
$var reg 1 ^" clear_acc_i $end
$var reg 1 _" valid_i $end
$var reg 32 `" a_i[31:0] $end
$var reg 32 a" b_i[31:0] $end
$var reg 32 b" c_o[31:0] $end
$var reg 1 c" valid_o $end
$var reg 32 d" a_reg_s[31:0] $end
$var reg 32 e" b_reg_s[31:0] $end
$var reg 64 f" mult_reg_s[63:0] $end
$var reg 68 g" adder_out_s[67:0] $end
$var reg 68 h" adder_reg1_s[67:0] $end
$var reg 68 i" adder_reg2_s[67:0] $end
$var reg 1 j" valid_reg1_s $end
$var reg 1 k" valid_reg2_s $end
$var reg 1 l" valid_reg3_s $end
$var reg 1 m" valid_reg4_s $end
$var reg 1 n" valid_reg5_s $end
$upscope $end
$upscope $end
$upscope $end
$scope module gen_matrix_multiplication(4) $end
$scope module matrix_multiplication_inst $end
$var reg 1 o" clk_i $end
$var reg 1 p" rst_n_i $end
$var reg 1 q" valid_i $end
$var reg 32 r" coeff_a_dat_i[31:0] $end
$var reg 32 s" coeff_b_dat_i[31:0] $end
$var reg 9 t" coeff_k_addr_i[8:0] $end
$var reg 9 u" coeff_k_addr_o[8:0] $end
$var reg 32 v" c_o[31:0] $end
$var reg 1 w" valid_debug_o $end
$var reg 1 x" valid_end_o $end
$var reg 1 y" clr_s $end
$var reg 1 z" v_i_s $end
$var reg 1 {" v_reg_s $end
$var reg 1 |" v_o_s $end
$var reg 32 }" a_s[31:0] $end
$var reg 32 !# a_reg_s[31:0] $end
$var reg 32 "# coeff_b_dat_s[31:0] $end
$var reg 9 ## coeff_k_addr_s[8:0] $end
$var reg 32 $# coeff_y_dat_s[31:0] $end
$var reg 9 %# coeff_y_addr_s[8:0] $end
$var integer 32 &# cnt $end
$scope module matmul_inst $end
$var reg 1 '# clk_i $end
$var reg 1 (# rst_n_i $end
$var reg 1 )# clear_acc_i $end
$var reg 1 *# valid_i $end
$var reg 32 +# a_i[31:0] $end
$var reg 32 ,# b_i[31:0] $end
$var reg 32 -# c_o[31:0] $end
$var reg 1 .# valid_o $end
$var reg 32 /# a_reg_s[31:0] $end
$var reg 32 0# b_reg_s[31:0] $end
$var reg 64 1# mult_reg_s[63:0] $end
$var reg 68 2# adder_out_s[67:0] $end
$var reg 68 3# adder_reg1_s[67:0] $end
$var reg 68 4# adder_reg2_s[67:0] $end
$var reg 1 5# valid_reg1_s $end
$var reg 1 6# valid_reg2_s $end
$var reg 1 7# valid_reg3_s $end
$var reg 1 8# valid_reg4_s $end
$var reg 1 9# valid_reg5_s $end
$upscope $end
$upscope $end
$upscope $end
$scope module gen_matrix_multiplication(5) $end
$scope module matrix_multiplication_inst $end
$var reg 1 :# clk_i $end
$var reg 1 ;# rst_n_i $end
$var reg 1 <# valid_i $end
$var reg 32 =# coeff_a_dat_i[31:0] $end
$var reg 32 ># coeff_b_dat_i[31:0] $end
$var reg 9 ?# coeff_k_addr_i[8:0] $end
$var reg 9 @# coeff_k_addr_o[8:0] $end
$var reg 32 A# c_o[31:0] $end
$var reg 1 B# valid_debug_o $end
$var reg 1 C# valid_end_o $end
$var reg 1 D# clr_s $end
$var reg 1 E# v_i_s $end
$var reg 1 F# v_reg_s $end
$var reg 1 G# v_o_s $end
$var reg 32 H# a_s[31:0] $end
$var reg 32 I# a_reg_s[31:0] $end
$var reg 32 J# coeff_b_dat_s[31:0] $end
$var reg 9 K# coeff_k_addr_s[8:0] $end
$var reg 32 L# coeff_y_dat_s[31:0] $end
$var reg 9 M# coeff_y_addr_s[8:0] $end
$var integer 32 N# cnt $end
$scope module matmul_inst $end
$var reg 1 O# clk_i $end
$var reg 1 P# rst_n_i $end
$var reg 1 Q# clear_acc_i $end
$var reg 1 R# valid_i $end
$var reg 32 S# a_i[31:0] $end
$var reg 32 T# b_i[31:0] $end
$var reg 32 U# c_o[31:0] $end
$var reg 1 V# valid_o $end
$var reg 32 W# a_reg_s[31:0] $end
$var reg 32 X# b_reg_s[31:0] $end
$var reg 64 Y# mult_reg_s[63:0] $end
$var reg 68 Z# adder_out_s[67:0] $end
$var reg 68 [# adder_reg1_s[67:0] $end
$var reg 68 \# adder_reg2_s[67:0] $end
$var reg 1 ]# valid_reg1_s $end
$var reg 1 ^# valid_reg2_s $end
$var reg 1 _# valid_reg3_s $end
$var reg 1 `# valid_reg4_s $end
$var reg 1 a# valid_reg5_s $end
$upscope $end
$upscope $end
$upscope $end
$scope module gen_matrix_multiplication(6) $end
$scope module matrix_multiplication_inst $end
$var reg 1 b# clk_i $end
$var reg 1 c# rst_n_i $end
$var reg 1 d# valid_i $end
$var reg 32 e# coeff_a_dat_i[31:0] $end
$var reg 32 f# coeff_b_dat_i[31:0] $end
$var reg 9 g# coeff_k_addr_i[8:0] $end
$var reg 9 h# coeff_k_addr_o[8:0] $end
$var reg 32 i# c_o[31:0] $end
$var reg 1 j# valid_debug_o $end
$var reg 1 k# valid_end_o $end
$var reg 1 l# clr_s $end
$var reg 1 m# v_i_s $end
$var reg 1 n# v_reg_s $end
$var reg 1 o# v_o_s $end
$var reg 32 p# a_s[31:0] $end
$var reg 32 q# a_reg_s[31:0] $end
$var reg 32 r# coeff_b_dat_s[31:0] $end
$var reg 9 s# coeff_k_addr_s[8:0] $end
$var reg 32 t# coeff_y_dat_s[31:0] $end
$var reg 9 u# coeff_y_addr_s[8:0] $end
$var integer 32 v# cnt $end
$scope module matmul_inst $end
$var reg 1 w# clk_i $end
$var reg 1 x# rst_n_i $end
$var reg 1 y# clear_acc_i $end
$var reg 1 z# valid_i $end
$var reg 32 {# a_i[31:0] $end
$var reg 32 |# b_i[31:0] $end
$var reg 32 }# c_o[31:0] $end
$var reg 1 !$ valid_o $end
$var reg 32 "$ a_reg_s[31:0] $end
$var reg 32 #$ b_reg_s[31:0] $end
$var reg 64 $$ mult_reg_s[63:0] $end
$var reg 68 %$ adder_out_s[67:0] $end
$var reg 68 &$ adder_reg1_s[67:0] $end
$var reg 68 '$ adder_reg2_s[67:0] $end
$var reg 1 ($ valid_reg1_s $end
$var reg 1 )$ valid_reg2_s $end
$var reg 1 *$ valid_reg3_s $end
$var reg 1 +$ valid_reg4_s $end
$var reg 1 ,$ valid_reg5_s $end
$upscope $end
$upscope $end
$upscope $end
$scope module gen_matrix_multiplication(7) $end
$scope module matrix_multiplication_inst $end
$var reg 1 -$ clk_i $end
$var reg 1 .$ rst_n_i $end
$var reg 1 /$ valid_i $end
$var reg 32 0$ coeff_a_dat_i[31:0] $end
$var reg 32 1$ coeff_b_dat_i[31:0] $end
$var reg 9 2$ coeff_k_addr_i[8:0] $end
$var reg 9 3$ coeff_k_addr_o[8:0] $end
$var reg 32 4$ c_o[31:0] $end
$var reg 1 5$ valid_debug_o $end
$var reg 1 6$ valid_end_o $end
$var reg 1 7$ clr_s $end
$var reg 1 8$ v_i_s $end
$var reg 1 9$ v_reg_s $end
$var reg 1 :$ v_o_s $end
$var reg 32 ;$ a_s[31:0] $end
$var reg 32 <$ a_reg_s[31:0] $end
$var reg 32 =$ coeff_b_dat_s[31:0] $end
$var reg 9 >$ coeff_k_addr_s[8:0] $end
$var reg 32 ?$ coeff_y_dat_s[31:0] $end
$var reg 9 @$ coeff_y_addr_s[8:0] $end
$var integer 32 A$ cnt $end
$scope module matmul_inst $end
$var reg 1 B$ clk_i $end
$var reg 1 C$ rst_n_i $end
$var reg 1 D$ clear_acc_i $end
$var reg 1 E$ valid_i $end
$var reg 32 F$ a_i[31:0] $end
$var reg 32 G$ b_i[31:0] $end
$var reg 32 H$ c_o[31:0] $end
$var reg 1 I$ valid_o $end
$var reg 32 J$ a_reg_s[31:0] $end
$var reg 32 K$ b_reg_s[31:0] $end
$var reg 64 L$ mult_reg_s[63:0] $end
$var reg 68 M$ adder_out_s[67:0] $end
$var reg 68 N$ adder_reg1_s[67:0] $end
$var reg 68 O$ adder_reg2_s[67:0] $end
$var reg 1 P$ valid_reg1_s $end
$var reg 1 Q$ valid_reg2_s $end
$var reg 1 R$ valid_reg3_s $end
$var reg 1 S$ valid_reg4_s $end
$var reg 1 T$ valid_reg5_s $end
$upscope $end
$upscope $end
$upscope $end
$upscope $end
$enddefinitions $end
#0
0!
0"
0#
U$
0%
b00000000000000000000000000000000 &
b000000000 '
b00000000000000000000000000000000 (
bUUUUUUUUUUUUUUUUUUUUUUUUUUUUUUUU )
b00000000000000000000000000000000 *
b00000000000000000000000000000000 +
0,
0-
0.
b00000000000000000000000000000000 /
b00000000000000000000000000000000 0
b000000000 1
bUUUUUUUUU 2
bUUUUUUUUUUUUUUUUUUUUUUUUUUUUUUUU 3
U4
U5
06
07
08
U9
b00000000000000000000000000000000 :
b00000000000000000000000000000000 ;
b00000000000000000000000000000000 <
b000000000 =
b00000000000000000000000000000000 >
b000000000 ?
b0 @
0A
0B
0C
0D
b00000000000000000000000000000000 E
b00000000000000000000000000000000 F
bUUUUUUUUUUUUUUUUUUUUUUUUUUUUUUUU G
UH
b00000000000000000000000000000000 I
b00000000000000000000000000000000 J
b0000000000000000000000000000000000000000000000000000000000000000 K
b00000000000000000000000000000000000000000000000000000000000000000000 L
b00000000000000000000000000000000000000000000000000000000000000000000 M
b00000000000000000000000000000000000000000000000000000000000000000000 N
UO
UP
UQ
UR
US
0T
0U
0V
b00000000000000000000000000000000 W
b00000000000000000000000000000000 X
b000000000 Y
bUUUUUUUUU Z
bUUUUUUUUUUUUUUUUUUUUUUUUUUUUUUUU [
U\
U]
0^
0_
0`
Ua
b00000000000000000000000000000000 b
b00000000000000000000000000000000 c
b00000000000000000000000000000000 d
b000000000 e
b00000000000000000000000000000000 f
b000000000 g
b0 h
0i
0j
0k
0l
b00000000000000000000000000000000 m
b00000000000000000000000000000000 n
bUUUUUUUUUUUUUUUUUUUUUUUUUUUUUUUU o
Up
b00000000000000000000000000000000 q
b00000000000000000000000000000000 r
b0000000000000000000000000000000000000000000000000000000000000000 s
b00000000000000000000000000000000000000000000000000000000000000000000 t
b00000000000000000000000000000000000000000000000000000000000000000000 u
b00000000000000000000000000000000000000000000000000000000000000000000 v
Uw
Ux
Uy
Uz
U{
0|
0}
0!"
b00000000000000000000000000000000 ""
b00000000000000000000000000000000 #"
b000000000 $"
bUUUUUUUUU %"
bUUUUUUUUUUUUUUUUUUUUUUUUUUUUUUUU &"
U'"
U("
0)"
0*"
0+"
U,"
b00000000000000000000000000000000 -"
b00000000000000000000000000000000 ."
b00000000000000000000000000000000 /"
b000000000 0"
b00000000000000000000000000000000 1"
b000000000 2"
b0 3"
04"
05"
06"
07"
b00000000000000000000000000000000 8"
b00000000000000000000000000000000 9"
bUUUUUUUUUUUUUUUUUUUUUUUUUUUUUUUU :"
U;"
b00000000000000000000000000000000 <"
b00000000000000000000000000000000 ="
b0000000000000000000000000000000000000000000000000000000000000000 >"
b00000000000000000000000000000000000000000000000000000000000000000000 ?"
b00000000000000000000000000000000000000000000000000000000000000000000 @"
b00000000000000000000000000000000000000000000000000000000000000000000 A"
UB"
UC"
UD"
UE"
UF"
0G"
0H"
0I"
b00000000000000000000000000000000 J"
b00000000000000000000000000000000 K"
b000000000 L"
bUUUUUUUUU M"
bUUUUUUUUUUUUUUUUUUUUUUUUUUUUUUUU N"
UO"
UP"
0Q"
0R"
0S"
UT"
b00000000000000000000000000000000 U"
b00000000000000000000000000000000 V"
b00000000000000000000000000000000 W"
b000000000 X"
b00000000000000000000000000000000 Y"
b000000000 Z"
b0 ["
0\"
0]"
0^"
0_"
b00000000000000000000000000000000 `"
b00000000000000000000000000000000 a"
bUUUUUUUUUUUUUUUUUUUUUUUUUUUUUUUU b"
Uc"
b00000000000000000000000000000000 d"
b00000000000000000000000000000000 e"
b0000000000000000000000000000000000000000000000000000000000000000 f"
b00000000000000000000000000000000000000000000000000000000000000000000 g"
b00000000000000000000000000000000000000000000000000000000000000000000 h"
b00000000000000000000000000000000000000000000000000000000000000000000 i"
Uj"
Uk"
Ul"
Um"
Un"
0o"
0p"
0q"
b00000000000000000000000000000000 r"
b00000000000000000000000000000000 s"
b000000000 t"
bUUUUUUUUU u"
bUUUUUUUUUUUUUUUUUUUUUUUUUUUUUUUU v"
Uw"
Ux"
0y"
0z"
0{"
U|"
b00000000000000000000000000000000 }"
b00000000000000000000000000000000 !#
b00000000000000000000000000000000 "#
b000000000 ##
b00000000000000000000000000000000 $#
b000000000 %#
b0 &#
0'#
0(#
0)#
0*#
b00000000000000000000000000000000 +#
b00000000000000000000000000000000 ,#
bUUUUUUUUUUUUUUUUUUUUUUUUUUUUUUUU -#
U.#
b00000000000000000000000000000000 /#
b00000000000000000000000000000000 0#
b0000000000000000000000000000000000000000000000000000000000000000 1#
b00000000000000000000000000000000000000000000000000000000000000000000 2#
b00000000000000000000000000000000000000000000000000000000000000000000 3#
b00000000000000000000000000000000000000000000000000000000000000000000 4#
U5#
U6#
U7#
U8#
U9#
0:#
0;#
0<#
b00000000000000000000000000000000 =#
b00000000000000000000000000000000 >#
b000000000 ?#
bUUUUUUUUU @#
bUUUUUUUUUUUUUUUUUUUUUUUUUUUUUUUU A#
UB#
UC#
0D#
0E#
0F#
UG#
b00000000000000000000000000000000 H#
b00000000000000000000000000000000 I#
b00000000000000000000000000000000 J#
b000000000 K#
b00000000000000000000000000000000 L#
b000000000 M#
b0 N#
0O#
0P#
0Q#
0R#
b00000000000000000000000000000000 S#
b00000000000000000000000000000000 T#
bUUUUUUUUUUUUUUUUUUUUUUUUUUUUUUUU U#
UV#
b00000000000000000000000000000000 W#
b00000000000000000000000000000000 X#
b0000000000000000000000000000000000000000000000000000000000000000 Y#
b00000000000000000000000000000000000000000000000000000000000000000000 Z#
b00000000000000000000000000000000000000000000000000000000000000000000 [#
b00000000000000000000000000000000000000000000000000000000000000000000 \#
U]#
U^#
U_#
U`#
Ua#
0b#
0c#
0d#
b00000000000000000000000000000000 e#
b00000000000000000000000000000000 f#
b000000000 g#
bUUUUUUUUU h#
bUUUUUUUUUUUUUUUUUUUUUUUUUUUUUUUU i#
Uj#
Uk#
0l#
0m#
0n#
Uo#
b00000000000000000000000000000000 p#
b00000000000000000000000000000000 q#
b00000000000000000000000000000000 r#
b000000000 s#
b00000000000000000000000000000000 t#
b000000000 u#
b0 v#
0w#
0x#
0y#
0z#
b00000000000000000000000000000000 {#
b00000000000000000000000000000000 |#
bUUUUUUUUUUUUUUUUUUUUUUUUUUUUUUUU }#
U!$
b00000000000000000000000000000000 "$
b00000000000000000000000000000000 #$
b0000000000000000000000000000000000000000000000000000000000000000 $$
b00000000000000000000000000000000000000000000000000000000000000000000 %$
b00000000000000000000000000000000000000000000000000000000000000000000 &$
b00000000000000000000000000000000000000000000000000000000000000000000 '$
U($
U)$
U*$
U+$
U,$
0-$
0.$
0/$
b00000000000000000000000000000000 0$
b00000000000000000000000000000000 1$
b000000000 2$
bUUUUUUUUU 3$
bUUUUUUUUUUUUUUUUUUUUUUUUUUUUUUUU 4$
U5$
U6$
07$
08$
09$
U:$
b00000000000000000000000000000000 ;$
b00000000000000000000000000000000 <$
b00000000000000000000000000000000 =$
b000000000 >$
b00000000000000000000000000000000 ?$
b000000000 @$
b0 A$
0B$
0C$
0D$
0E$
b00000000000000000000000000000000 F$
b00000000000000000000000000000000 G$
bUUUUUUUUUUUUUUUUUUUUUUUUUUUUUUUU H$
UI$
b00000000000000000000000000000000 J$
b00000000000000000000000000000000 K$
b0000000000000000000000000000000000000000000000000000000000000000 L$
b00000000000000000000000000000000000000000000000000000000000000000000 M$
b00000000000000000000000000000000000000000000000000000000000000000000 N$
b00000000000000000000000000000000000000000000000000000000000000000000 O$
UP$
UQ$
UR$
US$
UT$
#125000000000
1!
1"
0$
1,
1-
04
05
1A
1B
0O
0P
0Q
0R
0S
1T
1U
0\
0]
1i
1j
0w
0x
0y
0z
0{
1|
1}
0'"
0("
14"
15"
0B"
0C"
0D"
0E"
0F"
1G"
1H"
0O"
0P"
1\"
1]"
0j"
0k"
0l"
0m"
0n"
1o"
1p"
0w"
0x"
1'#
1(#
05#
06#
07#
08#
09#
1:#
1;#
0B#
0C#
1O#
1P#
0]#
0^#
0_#
0`#
0a#
1b#
1c#
0j#
0k#
1w#
1x#
0($
0)$
0*$
0+$
0,$
1-$
1.$
05$
06$
1B$
1C$
0P$
0Q$
0R$
0S$
0T$
#250000000000
0!
0,
0A
0T
0i
0|
04"
0G"
0\"
0o"
0'#
0:#
0O#
0b#
0w#
0-$
0B$
#375000000000
1!
U$
b00000000000000000000000000000000 )
1,
b000000000 2
b00000000000000000000000000000000 3
U4
09
1A
b00000000000000000000000000000000 G
0H
1T
b000000000 Z
b00000000000000000000000000000000 [
U\
0a
1i
b00000000000000000000000000000000 o
0p
1|
b000000000 %"
b00000000000000000000000000000000 &"
U'"
0,"
14"
b00000000000000000000000000000000 :"
0;"
1G"
b000000000 M"
b00000000000000000000000000000000 N"
UO"
0T"
1\"
b00000000000000000000000000000000 b"
0c"
1o"
b000000000 u"
b00000000000000000000000000000000 v"
Uw"
0|"
1'#
b00000000000000000000000000000000 -#
0.#
1:#
b000000000 @#
b00000000000000000000000000000000 A#
UB#
0G#
1O#
b00000000000000000000000000000000 U#
0V#
1b#
b000000000 h#
b00000000000000000000000000000000 i#
Uj#
0o#
1w#
b00000000000000000000000000000000 }#
0!$
1-$
b000000000 3$
b00000000000000000000000000000000 4$
U5$
0:$
1B$
b00000000000000000000000000000000 H$
0I$
#500000000000
0!
1%
0,
0A
0T
0i
0|
04"
0G"
0\"
0o"
0'#
0:#
0O#
0b#
0w#
0-$
0B$
#625000000000
1!
1#
0$
b11111111111111111111111111111100 &
b00000000000000000000000000000001 (
1,
1.
b11111111111111111111111111111100 /
b00000000000000000000000000000001 0
b00000000000000000000000000000000 3
04
1A
b00000000000000000000000000000000 G
1T
1V
b11111111111111111111111111111100 W
b00000000000000000000000000000001 X
b00000000000000000000000000000000 [
0\
1i
b00000000000000000000000000000000 o
1|
1!"
b11111111111111111111111111111100 ""
b00000000000000000000000000000001 #"
b00000000000000000000000000000000 &"
0'"
14"
b00000000000000000000000000000000 :"
1G"
1I"
b11111111111111111111111111111100 J"
b00000000000000000000000000000001 K"
b00000000000000000000000000000000 N"
0O"
1\"
b00000000000000000000000000000000 b"
1o"
1q"
b11111111111111111111111111111100 r"
b00000000000000000000000000000001 s"
b00000000000000000000000000000000 v"
0w"
1'#
b00000000000000000000000000000000 -#
1:#
1<#
b11111111111111111111111111111100 =#
b00000000000000000000000000000001 >#
b00000000000000000000000000000000 A#
0B#
1O#
b00000000000000000000000000000000 U#
1b#
1d#
b11111111111111111111111111111100 e#
b00000000000000000000000000000001 f#
b00000000000000000000000000000000 i#
0j#
1w#
b00000000000000000000000000000000 }#
1-$
1/$
b11111111111111111111111111111100 0$
b00000000000000000000000000000001 1$
b00000000000000000000000000000000 4$
05$
1B$
b00000000000000000000000000000000 H$
#750000000000
0!
0%
0,
0A
0T
0i
0|
04"
0G"
0\"
0o"
0'#
0:#
0O#
0b#
0w#
0-$
0B$
#875000000000
1!
0#
1,
0.
b00000000000000000000000000000000 3
04
18
b11111111111111111111111111111100 ;
b00000000000000000000000000000001 <
1A
b00000000000000000000000000000001 F
b00000000000000000000000000000000 G
1T
0V
b00000000000000000000000000000000 [
0\
1`
b11111111111111111111111111111100 c
b00000000000000000000000000000001 d
1i
b00000000000000000000000000000001 n
b00000000000000000000000000000000 o
1|
0!"
b00000000000000000000000000000000 &"
0'"
1+"
b11111111111111111111111111111100 ."
b00000000000000000000000000000001 /"
14"
b00000000000000000000000000000001 9"
b00000000000000000000000000000000 :"
1G"
0I"
b00000000000000000000000000000000 N"
0O"
1S"
b11111111111111111111111111111100 V"
b00000000000000000000000000000001 W"
1\"
b00000000000000000000000000000001 a"
b00000000000000000000000000000000 b"
1o"
0q"
b00000000000000000000000000000000 v"
0w"
1{"
b11111111111111111111111111111100 !#
b00000000000000000000000000000001 "#
1'#
b00000000000000000000000000000001 ,#
b00000000000000000000000000000000 -#
1:#
0<#
b00000000000000000000000000000000 A#
0B#
1F#
b11111111111111111111111111111100 I#
b00000000000000000000000000000001 J#
1O#
b00000000000000000000000000000001 T#
b00000000000000000000000000000000 U#
1b#
0d#
b00000000000000000000000000000000 i#
0j#
1n#
b11111111111111111111111111111100 q#
b00000000000000000000000000000001 r#
1w#
b00000000000000000000000000000001 |#
b00000000000000000000000000000000 }#
1-$
0/$
b00000000000000000000000000000000 4$
05$
19$
b11111111111111111111111111111100 <$
b00000000000000000000000000000001 =$
1B$
b00000000000000000000000000000001 G$
b00000000000000000000000000000000 H$
#1000000000000
0!
1%
0,
0A
0T
0i
0|
04"
0G"
0\"
0o"
0'#
0:#
0O#
0b#
0w#
0-$
0B$
