hdl/testbench/matmul/mult_tb.vcd
$date
  Thu Jul 22 10:53:16 2021
$end
$version
  GHDL v0
$end
$timescale
  1 fs
$end
$scope module standard $end
$upscope $end
$scope module std_logic_1164 $end
$upscope $end
$scope module numeric_std $end
$upscope $end
$scope module math_real $end
$upscope $end
$scope module textio $end
$upscope $end
$scope module mult_pkg $end
$upscope $end
$scope module mult_tb $end
$var reg 1 ! clk_s $end
$var reg 1 " rst_s $end
$var reg 1 # v_i_s $end
$var reg 1 $ v_o_s $end
$var reg 1 % valid_tr $end
$var reg 32 & a_s[31:0] $end
$var reg 9 ' k_s[8:0] $end
$var reg 32 ( b_s[31:0] $end
$var reg 32 ) c_s[31:0] $end
$var reg 32 * c_acc_s[31:0] $end
$var reg 32 + my_out_s[31:0] $end
$scope module mac_fofb_inst $end
$var reg 1 , clk_i $end
$var reg 1 - rst_n_i $end
$var reg 1 . valid_i $end
$var reg 32 / coeff_a_dat_i[31:0] $end
$var reg 32 0 coeff_b_dat_i[31:0] $end
$var reg 9 1 coeff_k_addr_i[8:0] $end
$var reg 9 2 coeff_k_addr_o[8:0] $end
$var reg 32 3 c_o[31:0] $end
$var reg 1 4 valid_debug_o $end
$var reg 1 5 valid_end_o $end
$var reg 1 6 clr_s $end
$var reg 1 7 v_i_s $end
$var reg 1 8 v_reg_s $end
$var reg 1 9 v_o_s $end
$var reg 32 : a_s[31:0] $end
$var reg 32 ; a_reg_s[31:0] $end
$var reg 32 < coeff_b_dat_s[31:0] $end
$var reg 9 = coeff_k_addr_s[8:0] $end
$var reg 32 > coeff_y_dat_s[31:0] $end
$var reg 9 ? coeff_y_addr_s[8:0] $end
$var integer 32 @ cnt $end
$scope module matmul_inst $end
$var reg 1 A clk_i $end
$var reg 1 B rst_n_i $end
$var reg 1 C clear_acc_i $end
$var reg 1 D valid_i $end
$var reg 32 E a_i[31:0] $end
$var reg 32 F b_i[31:0] $end
$var reg 32 G c_o[31:0] $end
$var reg 1 H valid_o $end
$var reg 32 I a_reg_s[31:0] $end
$var reg 32 J b_reg_s[31:0] $end
$var reg 64 K mult_reg_s[63:0] $end
$var reg 68 L adder_out_s[67:0] $end
$var reg 68 M adder_reg1_s[67:0] $end
$var reg 68 N adder_reg2_s[67:0] $end
$var reg 1 O valid_reg1_s $end
$var reg 1 P valid_reg2_s $end
$var reg 1 Q valid_reg3_s $end
$var reg 1 R valid_reg4_s $end
$var reg 1 S valid_reg5_s $end
$upscope $end
$upscope $end
$upscope $end
$enddefinitions $end
#0
0!
0"
0#
U$
0%
b00000000000000000000000000000000 &
b000000000 '
b00000000000000000000000000000000 (
bUUUUUUUUUUUUUUUUUUUUUUUUUUUUUUUU )
b00000000000000000000000000000000 *
b00000000000000000000000000000000 +
0,
0-
0.
b00000000000000000000000000000000 /
b00000000000000000000000000000000 0
b000000000 1
bUUUUUUUUU 2
bUUUUUUUUUUUUUUUUUUUUUUUUUUUUUUUU 3
U4
U5
06
07
08
U9
b00000000000000000000000000000000 :
b00000000000000000000000000000000 ;
b00000000000000000000000000000000 <
b000000000 =
b00000000000000000000000000000000 >
b000000000 ?
b0 @
0A
0B
0C
0D
b00000000000000000000000000000000 E
b00000000000000000000000000000000 F
bUUUUUUUUUUUUUUUUUUUUUUUUUUUUUUUU G
UH
b00000000000000000000000000000000 I
b00000000000000000000000000000000 J
b0000000000000000000000000000000000000000000000000000000000000000 K
b00000000000000000000000000000000000000000000000000000000000000000000 L
b00000000000000000000000000000000000000000000000000000000000000000000 M
b00000000000000000000000000000000000000000000000000000000000000000000 N
UO
UP
UQ
UR
US
#125000000000
1!
1"
0$
1,
1-
04
05
1A
1B
0O
0P
0Q
0R
0S
#250000000000
0!
0,
0A
#375000000000
1!
U$
b00000000000000000000000000000000 )
1,
b000000000 2
b00000000000000000000000000000000 3
U4
09
1A
b00000000000000000000000000000000 G
0H
#500000000000
0!
1%
0,
0A
#625000000000
1!
1#
0$
b11111111111111111111111111111100 &
b00000000000000000000000000000001 (
1,
1.
b11111111111111111111111111111100 /
b00000000000000000000000000000001 0
04
1A
#750000000000
0!
0%
0,
0A
#875000000000
1!
0#
1,
0.
18
b11111111111111111111111111111100 ;
b00000000000000000000000000000001 <
1A
b00000000000000000000000000000001 F
#1000000000000
0!
1%
0,
0A
#1125000000000
1!
1#
b00000000000000000000000000000111 &
b000000001 '
b11111111111111111111111111111100 (
1,
1.
b00000000000000000000000000000111 /
b11111111111111111111111111111100 0
b000000001 1
17
08
b11111111111111111111111111111100 :
1A
1D
b11111111111111111111111111111100 E
b00000000000000000000000000000001 J
#1250000000000
0!
0%
0,
0A
#1375000000000
1!
0#
1,
0.
07
18
b00000000000000000000000000000111 ;
b11111111111111111111111111111100 <
b000000001 =
1A
0D
b11111111111111111111111111111100 F
b11111111111111111111111111111100 I
1O
#1500000000000
0!
1%
0,
0A
#1625000000000
1!
1#
b11111111111111111111111111111101 &
b000000010 '
b11111111111111111111111111111000 (
1,
1.
b11111111111111111111111111111101 /
b11111111111111111111111111111000 0
b000000010 1
b000000001 2
17
08
b00000000000000000000000000000111 :
1A
1D
b00000000000000000000000000000111 E
b11111111111111111111111111111100 J
b1111111111111111111111111111111111111111111111111111111111111100 K
0O
1P
#1750000000000
0!
0%
0,
0A
#1875000000000
1!
0#
1,
0.
07
18
b11111111111111111111111111111101 ;
b11111111111111111111111111111000 <
b000000010 =
1A
0D
b11111111111111111111111111111000 F
b00000000000000000000000000000111 I
b0000000000000000000000000000000000000000000000000000000000010000 K
b11111111111111111111111111111111111111111111111111111111111111111100 L
1O
0P
1Q
#2000000000000
0!
1%
0,
0A
#2125000000000
1!
1#
b00000000000000000000000000000110 &
b000000011 '
b11111111111111111111111111111110 (
1,
1.
b00000000000000000000000000000110 /
b11111111111111111111111111111110 0
b000000011 1
b000000010 2
17
08
b11111111111111111111111111111101 :
1A
1D
b11111111111111111111111111111101 E
b11111111111111111111111111111000 J
b1111111111111111111111111111111111111111111111111111111111100100 K
b11111111111111111111111111111111111111111111111111111111111111111100 M
0O
1P
0Q
1R
#2250000000000
0!
0%
0,
0A
#2375000000000
1!
0#
1,
0.
07
18
b00000000000000000000000000000110 ;
b11111111111111111111111111111110 <
b000000011 =
1A
0D
b11111111111111111111111111111110 F
b11111111111111111111111111111101 I
b1111111111111111111111111111111111111111111111111111111111001000 K
b11111111111111111111111111111111111111111111111111111111111111100000 L
b11111111111111111111111111111111111111111111111111111111111111111100 N
1O
0P
1Q
0R
1S
#2500000000000
0!
1%
0,
0A
#2625000000000
1!
1#
b11111111111111111111111111111010 &
b000000100 '
b00000000000000000000000000000010 (
b11111111111111111111111111111100 )
1,
1.
b11111111111111111111111111111010 /
b00000000000000000000000000000010 0
b000000100 1
b000000011 2
b11111111111111111111111111111100 3
17
08
19
b00000000000000000000000000000110 :
1A
1D
b00000000000000000000000000000110 E
b11111111111111111111111111111100 G
1H
b11111111111111111111111111111110 J
b0000000000000000000000000000000000000000000000000000000000011000 K
b11111111111111111111111111111111111111111111111111111111111111100000 M
0O
1P
0Q
1R
0S
#2750000000000
0!
0%
0,
0A
#2875000000000
1!
0#
1$
1,
0.
14
07
18
09
b11111111111111111111111111111010 ;
b00000000000000000000000000000010 <
b000000100 =
b1 @
1A
0D
b00000000000000000000000000000010 F
0H
b00000000000000000000000000000110 I
b0000000000000000000000000000000000000000000000000000000000000110 K
b11111111111111111111111111111111111111111111111111111111111111111000 L
b11111111111111111111111111111111111111111111111111111111111111100000 N
1O
0P
1Q
0R
1S
#3000000000000
0!
1%
0,
0A
#3125000000000
1!
1#
0$
b11111111111111111111111111111111 &
b000000101 '
b00000000000000000000000000000111 (
b11111111111111111111111111100000 )
1,
1.
b11111111111111111111111111111111 /
b00000000000000000000000000000111 0
b000000101 1
b000000100 2
b11111111111111111111111111100000 3
04
17
08
19
b11111111111111111111111111111010 :
1A
1D
b11111111111111111111111111111010 E
b11111111111111111111111111100000 G
1H
b00000000000000000000000000000010 J
b1111111111111111111111111111111111111111111111111111111111110100 K
b11111111111111111111111111111111111111111111111111111111111111111000 M
0O
1P
0Q
1R
0S
#3250000000000
0!
0%
0,
0A
#3375000000000
1!
0#
1$
1,
0.
14
07
18
09
b11111111111111111111111111111111 ;
b00000000000000000000000000000111 <
b000000101 =
b10 @
1A
0D
b00000000000000000000000000000111 F
0H
b11111111111111111111111111111010 I
b0000000000000000000000000000000000000000000000000000000000001100 K
b11111111111111111111111111111111111111111111111111111111111111101100 L
b11111111111111111111111111111111111111111111111111111111111111111000 N
1O
0P
1Q
0R
1S
#3500000000000
0!
1%
0,
0A
#3625000000000
1!
1#
0$
b11111111111111111111111111111010 &
b000000110 '
b11111111111111111111111111111111 (
b11111111111111111111111111111000 )
1,
1.
b11111111111111111111111111111010 /
b11111111111111111111111111111111 0
b000000110 1
b000000101 2
b11111111111111111111111111111000 3
04
17
08
19
b11111111111111111111111111111111 :
1A
1D
b11111111111111111111111111111111 E
b11111111111111111111111111111000 G
1H
b00000000000000000000000000000111 J
b1111111111111111111111111111111111111111111111111111111111110100 K
b11111111111111111111111111111111111111111111111111111111111111101100 M
0O
1P
0Q
1R
0S
#3750000000000
0!
0%
0,
0A
#3875000000000
1!
0#
1$
1,
0.
14
07
18
09
b11111111111111111111111111111010 ;
b11111111111111111111111111111111 <
b000000110 =
b11 @
1A
0D
b11111111111111111111111111111111 F
0H
b11111111111111111111111111111111 I
b1111111111111111111111111111111111111111111111111111111111010110 K
b11111111111111111111111111111111111111111111111111111111111111100000 L
b11111111111111111111111111111111111111111111111111111111111111101100 N
1O
0P
1Q
0R
1S
#4000000000000
0!
1%
0,
0A
#4125000000000
1!
1#
0$
b00000000000000000000000000000111 &
b000000111 '
b00000000000000000000000000000010 (
b11111111111111111111111111101100 )
1,
1.
b00000000000000000000000000000111 /
b00000000000000000000000000000010 0
b000000111 1
b000000110 2
b11111111111111111111111111101100 3
04
17
08
19
b11111111111111111111111111111010 :
1A
1D
b11111111111111111111111111111010 E
b11111111111111111111111111101100 G
1H
b11111111111111111111111111111111 J
b1111111111111111111111111111111111111111111111111111111111111001 K
b11111111111111111111111111111111111111111111111111111111111111100000 M
0O
1P
0Q
1R
0S
#4250000000000
0!
0%
0,
0A
#4375000000000
1!
0#
1$
1,
0.
14
07
18
09
b00000000000000000000000000000111 ;
b00000000000000000000000000000010 <
b000000111 =
b100 @
1A
0D
b00000000000000000000000000000010 F
0H
b11111111111111111111111111111010 I
b0000000000000000000000000000000000000000000000000000000000000001 K
b11111111111111111111111111111111111111111111111111111111111111011001 L
b11111111111111111111111111111111111111111111111111111111111111100000 N
1O
0P
1Q
0R
1S
#4500000000000
0!
1%
0,
0A
#4625000000000
1!
1#
0$
b00000000000000000000000000000110 &
b000001000 '
b00000000000000000000000000000110 (
b11111111111111111111111111100000 )
1,
1.
b00000000000000000000000000000110 /
b00000000000000000000000000000110 0
b000001000 1
b000000111 2
b11111111111111111111111111100000 3
04
17
08
19
b00000000000000000000000000000111 :
1A
1D
b00000000000000000000000000000111 E
b11111111111111111111111111100000 G
1H
b00000000000000000000000000000010 J
b0000000000000000000000000000000000000000000000000000000000000110 K
b11111111111111111111111111111111111111111111111111111111111111011001 M
0O
1P
0Q
1R
0S
#4750000000000
0!
0%
0,
0A
#4875000000000
1!
0#
1$
1,
0.
14
07
18
09
b00000000000000000000000000000110 ;
b00000000000000000000000000000110 <
b000001000 =
b101 @
1A
0D
b00000000000000000000000000000110 F
0H
b00000000000000000000000000000111 I
b1111111111111111111111111111111111111111111111111111111111110100 K
b11111111111111111111111111111111111111111111111111111111111111011111 L
b11111111111111111111111111111111111111111111111111111111111111011001 N
1O
0P
1Q
0R
1S
#5000000000000
0!
1%
0,
0A
#5125000000000
1!
1#
0$
b11111111111111111111111111110110 &
b000001001 '
b11111111111111111111111111111001 (
b11111111111111111111111111011001 )
1,
1.
b11111111111111111111111111110110 /
b11111111111111111111111111111001 0
b000001001 1
b000001000 2
b11111111111111111111111111011001 3
04
17
08
19
b00000000000000000000000000000110 :
1A
1D
b00000000000000000000000000000110 E
b11111111111111111111111111011001 G
1H
b00000000000000000000000000000110 J
b0000000000000000000000000000000000000000000000000000000000001110 K
b11111111111111111111111111111111111111111111111111111111111111011111 M
0O
1P
0Q
1R
0S
#5250000000000
0!
0%
0,
0A
#5375000000000
1!
0#
1$
1,
0.
14
07
18
09
b11111111111111111111111111110110 ;
b11111111111111111111111111111001 <
b000001001 =
b110 @
1A
0D
b11111111111111111111111111111001 F
0H
b00000000000000000000000000000110 I
b0000000000000000000000000000000000000000000000000000000000101010 K
b11111111111111111111111111111111111111111111111111111111111111101101 L
b11111111111111111111111111111111111111111111111111111111111111011111 N
1O
0P
1Q
0R
1S
#5500000000000
0!
1%
0,
0A
#5625000000000
1!
1#
0$
b00000000000000000000000000000010 &
b000001010 '
b00000000000000000000000000001010 (
b11111111111111111111111111011111 )
1,
1.
b00000000000000000000000000000010 /
b00000000000000000000000000001010 0
b000001010 1
b000001001 2
b11111111111111111111111111011111 3
04
17
08
19
b11111111111111111111111111110110 :
1A
1D
b11111111111111111111111111110110 E
b11111111111111111111111111011111 G
1H
b11111111111111111111111111111001 J
b0000000000000000000000000000000000000000000000000000000000100100 K
b11111111111111111111111111111111111111111111111111111111111111101101 M
0O
1P
0Q
1R
0S
#5750000000000
0!
0%
0,
0A
#5875000000000
1!
0#
1$
1,
0.
14
07
18
09
b00000000000000000000000000000010 ;
b00000000000000000000000000001010 <
b000001010 =
b111 @
1A
0D
b00000000000000000000000000001010 F
0H
b11111111111111111111111111110110 I
b1111111111111111111111111111111111111111111111111111111111010110 K
b00000000000000000000000000000000000000000000000000000000000000010001 L
b11111111111111111111111111111111111111111111111111111111111111101101 N
1O
0P
1Q
0R
1S
#6000000000000
0!
1%
0,
0A
#6125000000000
1!
1#
0$
b11111111111111111111111111110110 &
b000001011 '
b11111111111111111111111111111010 (
b11111111111111111111111111101101 )
1,
1.
b11111111111111111111111111110110 /
b11111111111111111111111111111010 0
b000001011 1
b000001010 2
b11111111111111111111111111101101 3
04
17
08
19
b00000000000000000000000000000010 :
1A
1D
b00000000000000000000000000000010 E
b11111111111111111111111111101101 G
1H
b00000000000000000000000000001010 J
b0000000000000000000000000000000000000000000000000000000001000110 K
b00000000000000000000000000000000000000000000000000000000000000010001 M
0O
1P
0Q
1R
0S
#6250000000000
0!
0%
0,
0A
#6375000000000
1!
0#
1$
1,
0.
14
07
18
09
b11111111111111111111111111110110 ;
b11111111111111111111111111111010 <
b000001011 =
b1000 @
1A
0D
b11111111111111111111111111111010 F
0H
b00000000000000000000000000000010 I
b1111111111111111111111111111111111111111111111111111111110011100 K
b00000000000000000000000000000000000000000000000000000000000001010111 L
b00000000000000000000000000000000000000000000000000000000000000010001 N
1O
0P
1Q
0R
1S
#6500000000000
0!
1%
0,
0A
#6625000000000
1!
1#
0$
b11111111111111111111111111110111 &
b000001100 '
b00000000000000000000000000001001 (
b00000000000000000000000000010001 )
1,
1.
b11111111111111111111111111110111 /
b00000000000000000000000000001001 0
b000001100 1
b000001011 2
b00000000000000000000000000010001 3
04
17
08
19
b11111111111111111111111111110110 :
1A
1D
b11111111111111111111111111110110 E
b00000000000000000000000000010001 G
1H
b11111111111111111111111111111010 J
b0000000000000000000000000000000000000000000000000000000000010100 K
b00000000000000000000000000000000000000000000000000000000000001010111 M
0O
1P
0Q
1R
0S
#6750000000000
0!
0%
0,
0A
#6875000000000
1!
0#
1$
1,
0.
14
07
18
09
b11111111111111111111111111110111 ;
b00000000000000000000000000001001 <
b000001100 =
b1001 @
1A
0D
b00000000000000000000000000001001 F
0H
b11111111111111111111111111110110 I
b1111111111111111111111111111111111111111111111111111111111110100 K
b00000000000000000000000000000000000000000000000000000000000001101011 L
b00000000000000000000000000000000000000000000000000000000000001010111 N
1O
0P
1Q
0R
1S
#7000000000000
0!
1%
0,
0A
#7125000000000
1!
1#
0$
b00000000000000000000000000000100 &
b000001101 '
b00000000000000000000000000000011 (
b00000000000000000000000001010111 )
1,
1.
b00000000000000000000000000000100 /
b00000000000000000000000000000011 0
b000001101 1
b000001100 2
b00000000000000000000000001010111 3
04
17
08
19
b11111111111111111111111111110111 :
1A
1D
b11111111111111111111111111110111 E
b00000000000000000000000001010111 G
1H
b00000000000000000000000000001001 J
b0000000000000000000000000000000000000000000000000000000000111100 K
b00000000000000000000000000000000000000000000000000000000000001101011 M
0O
1P
0Q
1R
0S
#7250000000000
0!
0%
0,
0A
#7375000000000
1!
0#
1$
1,
0.
14
07
18
09
b00000000000000000000000000000100 ;
b00000000000000000000000000000011 <
b000001101 =
b1010 @
1A
0D
b00000000000000000000000000000011 F
0H
b11111111111111111111111111110111 I
b1111111111111111111111111111111111111111111111111111111110100110 K
b00000000000000000000000000000000000000000000000000000000000010100111 L
b00000000000000000000000000000000000000000000000000000000000001101011 N
1O
0P
1Q
0R
1S
#7500000000000
0!
1%
0,
0A
#7625000000000
1!
1#
0$
b00000000000000000000000000001001 &
b000001110 '
b00000000000000000000000000001001 (
b00000000000000000000000001101011 )
1,
1.
b00000000000000000000000000001001 /
b00000000000000000000000000001001 0
b000001110 1
b000001101 2
b00000000000000000000000001101011 3
04
17
08
19
b00000000000000000000000000000100 :
1A
1D
b00000000000000000000000000000100 E
b00000000000000000000000001101011 G
1H
b00000000000000000000000000000011 J
b1111111111111111111111111111111111111111111111111111111110101111 K
b00000000000000000000000000000000000000000000000000000000000010100111 M
0O
1P
0Q
1R
0S
#7750000000000
0!
0%
0,
0A
#7875000000000
1!
0#
1$
1,
0.
14
07
18
09
b00000000000000000000000000001001 ;
b00000000000000000000000000001001 <
b000001110 =
b1011 @
1A
0D
b00000000000000000000000000001001 F
0H
b00000000000000000000000000000100 I
b1111111111111111111111111111111111111111111111111111111111100101 K
b00000000000000000000000000000000000000000000000000000000000001010110 L
b00000000000000000000000000000000000000000000000000000000000010100111 N
1O
0P
1Q
0R
1S
#8000000000000
0!
1%
0,
0A
#8125000000000
1!
1#
0$
b00000000000000000000000000001010 &
b000001111 '
b00000000000000000000000000000100 (
b00000000000000000000000010100111 )
1,
1.
b00000000000000000000000000001010 /
b00000000000000000000000000000100 0
b000001111 1
b000001110 2
b00000000000000000000000010100111 3
04
17
08
19
b00000000000000000000000000001001 :
1A
1D
b00000000000000000000000000001001 E
b00000000000000000000000010100111 G
1H
b00000000000000000000000000001001 J
b0000000000000000000000000000000000000000000000000000000000001100 K
b00000000000000000000000000000000000000000000000000000000000001010110 M
0O
1P
0Q
1R
0S
#8250000000000
0!
0%
0,
0A
#8375000000000
1!
0#
1$
1,
0.
14
07
18
09
b00000000000000000000000000001010 ;
b00000000000000000000000000000100 <
b000001111 =
b1100 @
1A
0D
b00000000000000000000000000000100 F
0H
b00000000000000000000000000001001 I
b0000000000000000000000000000000000000000000000000000000000100100 K
b00000000000000000000000000000000000000000000000000000000000001100010 L
b00000000000000000000000000000000000000000000000000000000000001010110 N
1O
0P
1Q
0R
1S
#8500000000000
0!
1%
0,
0A
#8625000000000
1!
1#
0$
b11111111111111111111111111110110 &
b000010000 '
b00000000000000000000000000000000 (
b00000000000000000000000001010110 )
1,
1.
b11111111111111111111111111110110 /
b00000000000000000000000000000000 0
b000010000 1
b000001111 2
b00000000000000000000000001010110 3
04
17
08
19
b00000000000000000000000000001010 :
1A
1D
b00000000000000000000000000001010 E
b00000000000000000000000001010110 G
1H
b00000000000000000000000000000100 J
b0000000000000000000000000000000000000000000000000000000001010001 K
b00000000000000000000000000000000000000000000000000000000000001100010 M
0O
1P
0Q
1R
0S
#8750000000000
0!
0%
0,
0A
#8875000000000
1!
0#
1$
1,
0.
14
07
18
09
b11111111111111111111111111110110 ;
b00000000000000000000000000000000 <
b000010000 =
b1101 @
1A
0D
b00000000000000000000000000000000 F
0H
b00000000000000000000000000001010 I
b0000000000000000000000000000000000000000000000000000000000100100 K
b00000000000000000000000000000000000000000000000000000000000010110011 L
b00000000000000000000000000000000000000000000000000000000000001100010 N
1O
0P
1Q
0R
1S
#9000000000000
0!
1%
0,
0A
#9125000000000
1!
1#
0$
b00000000000000000000000000000110 &
b000010001 '
b11111111111111111111111111111000 (
b00000000000000000000000001100010 )
1,
1.
b00000000000000000000000000000110 /
b11111111111111111111111111111000 0
b000010001 1
b000010000 2
b00000000000000000000000001100010 3
04
17
08
19
b11111111111111111111111111110110 :
1A
1D
b11111111111111111111111111110110 E
b00000000000000000000000001100010 G
1H
b00000000000000000000000000000000 J
b0000000000000000000000000000000000000000000000000000000000101000 K
b00000000000000000000000000000000000000000000000000000000000010110011 M
0O
1P
0Q
1R
0S
#9250000000000
0!
0%
0,
0A
#9375000000000
1!
0#
1$
1,
0.
14
07
18
09
b00000000000000000000000000000110 ;
b11111111111111111111111111111000 <
b000010001 =
b1110 @
1A
0D
b11111111111111111111111111111000 F
0H
b11111111111111111111111111110110 I
b0000000000000000000000000000000000000000000000000000000000000000 K
b00000000000000000000000000000000000000000000000000000000000011011011 L
b00000000000000000000000000000000000000000000000000000000000010110011 N
1O
0P
1Q
0R
1S
#9500000000000
0!
1%
0,
0A
#9625000000000
1!
1#
0$
b00000000000000000000000000000011 &
b000010010 '
b11111111111111111111111111111011 (
b00000000000000000000000010110011 )
1,
1.
b00000000000000000000000000000011 /
b11111111111111111111111111111011 0
b000010010 1
b000010001 2
b00000000000000000000000010110011 3
04
17
08
19
b00000000000000000000000000000110 :
1A
1D
b00000000000000000000000000000110 E
b00000000000000000000000010110011 G
1H
b11111111111111111111111111111000 J
b00000000000000000000000000000000000000000000000000000000000011011011 M
0O
1P
0Q
1R
0S
#9750000000000
0!
0%
0,
0A
#9875000000000
1!
0#
1$
1,
0.
14
07
18
09
b00000000000000000000000000000011 ;
b11111111111111111111111111111011 <
b000010010 =
b1111 @
1A
0D
b11111111111111111111111111111011 F
0H
b00000000000000000000000000000110 I
b0000000000000000000000000000000000000000000000000000000001010000 K
b00000000000000000000000000000000000000000000000000000000000011011011 N
1O
0P
1Q
0R
1S
#10000000000000
0!
1%
0,
0A
#10125000000000
1!
1#
0$
b11111111111111111111111111111001 &
b000010011 '
b11111111111111111111111111111111 (
b00000000000000000000000011011011 )
1,
1.
b11111111111111111111111111111001 /
b11111111111111111111111111111111 0
b000010011 1
b000010010 2
b00000000000000000000000011011011 3
04
17
08
19
b00000000000000000000000000000011 :
1A
1D
b00000000000000000000000000000011 E
b00000000000000000000000011011011 G
1H
b11111111111111111111111111111011 J
b1111111111111111111111111111111111111111111111111111111111010000 K
0O
1P
0Q
1R
0S
#10250000000000
0!
0%
0,
0A
#10375000000000
1!
0#
1$
1,
0.
14
07
18
09
b11111111111111111111111111111001 ;
b11111111111111111111111111111111 <
b000010011 =
b10000 @
1A
0D
b11111111111111111111111111111111 F
0H
b00000000000000000000000000000011 I
b1111111111111111111111111111111111111111111111111111111111100010 K
b00000000000000000000000000000000000000000000000000000000000010101011 L
1O
0P
1Q
0R
1S
#10500000000000
0!
1%
0,
0A
#10625000000000
1!
1#
0$
b00000000000000000000000000000101 &
b000010100 '
b00000000000000000000000000000011 (
1,
1.
b00000000000000000000000000000101 /
b00000000000000000000000000000011 0
b000010100 1
b000010011 2
04
17
08
19
b11111111111111111111111111111001 :
1A
1D
b11111111111111111111111111111001 E
1H
b11111111111111111111111111111111 J
b1111111111111111111111111111111111111111111111111111111111110001 K
b00000000000000000000000000000000000000000000000000000000000010101011 M
0O
1P
0Q
1R
0S
#10750000000000
0!
0%
0,
0A
#10875000000000
1!
0#
1$
1,
0.
14
07
18
09
b00000000000000000000000000000101 ;
b00000000000000000000000000000011 <
b000010100 =
b10001 @
1A
0D
b00000000000000000000000000000011 F
0H
b11111111111111111111111111111001 I
b1111111111111111111111111111111111111111111111111111111111111101 K
b00000000000000000000000000000000000000000000000000000000000010011100 L
b00000000000000000000000000000000000000000000000000000000000010101011 N
1O
0P
1Q
0R
1S
#11000000000000
0!
1%
0,
0A
#11125000000000
1!
1#
0$
b00000000000000000000000000001010 &
b000010101 '
b00000000000000000000000000000111 (
b00000000000000000000000010101011 )
1,
1.
b00000000000000000000000000001010 /
b00000000000000000000000000000111 0
b000010101 1
b000010100 2
b00000000000000000000000010101011 3
04
17
08
19
b00000000000000000000000000000101 :
1A
1D
b00000000000000000000000000000101 E
b00000000000000000000000010101011 G
1H
b00000000000000000000000000000011 J
b0000000000000000000000000000000000000000000000000000000000000111 K
b00000000000000000000000000000000000000000000000000000000000010011100 M
0O
1P
0Q
1R
0S
#11250000000000
0!
0%
0,
0A
#11375000000000
1!
0#
1$
1,
0.
14
07
18
09
b00000000000000000000000000001010 ;
b00000000000000000000000000000111 <
b000010101 =
b10010 @
1A
0D
b00000000000000000000000000000111 F
0H
b00000000000000000000000000000101 I
b1111111111111111111111111111111111111111111111111111111111101011 K
b00000000000000000000000000000000000000000000000000000000000010100011 L
b00000000000000000000000000000000000000000000000000000000000010011100 N
1O
0P
1Q
0R
1S
#11500000000000
0!
1%
0,
0A
#11625000000000
1!
1#
0$
b11111111111111111111111111110111 &
b000010110 '
b00000000000000000000000000000101 (
b00000000000000000000000010011100 )
1,
1.
b11111111111111111111111111110111 /
b00000000000000000000000000000101 0
b000010110 1
b000010101 2
b00000000000000000000000010011100 3
04
17
08
19
b00000000000000000000000000001010 :
1A
1D
b00000000000000000000000000001010 E
b00000000000000000000000010011100 G
1H
b00000000000000000000000000000111 J
b0000000000000000000000000000000000000000000000000000000000001111 K
b00000000000000000000000000000000000000000000000000000000000010100011 M
0O
1P
0Q
1R
0S
#11750000000000
0!
0%
0,
0A
#11875000000000
1!
0#
1$
1,
0.
14
07
18
09
b11111111111111111111111111110111 ;
b00000000000000000000000000000101 <
b000010110 =
b10011 @
1A
0D
b00000000000000000000000000000101 F
0H
b00000000000000000000000000001010 I
b0000000000000000000000000000000000000000000000000000000000100011 K
b00000000000000000000000000000000000000000000000000000000000010110010 L
b00000000000000000000000000000000000000000000000000000000000010100011 N
1O
0P
1Q
0R
1S
#12000000000000
0!
1%
0,
0A
#12125000000000
1!
1#
0$
b11111111111111111111111111111110 &
b000010111 '
b00000000000000000000000000000011 (
b00000000000000000000000010100011 )
1,
1.
b11111111111111111111111111111110 /
b00000000000000000000000000000011 0
b000010111 1
b000010110 2
b00000000000000000000000010100011 3
04
17
08
19
b11111111111111111111111111110111 :
1A
1D
b11111111111111111111111111110111 E
b00000000000000000000000010100011 G
1H
b00000000000000000000000000000101 J
b0000000000000000000000000000000000000000000000000000000001000110 K
b00000000000000000000000000000000000000000000000000000000000010110010 M
0O
1P
0Q
1R
0S
#12250000000000
0!
0%
0,
0A
#12375000000000
1!
0#
1$
1,
0.
14
07
18
09
b11111111111111111111111111111110 ;
b00000000000000000000000000000011 <
b000010111 =
b10100 @
1A
0D
b00000000000000000000000000000011 F
0H
b11111111111111111111111111110111 I
b0000000000000000000000000000000000000000000000000000000000110010 K
b00000000000000000000000000000000000000000000000000000000000011111000 L
b00000000000000000000000000000000000000000000000000000000000010110010 N
1O
0P
1Q
0R
1S
#12500000000000
0!
1%
0,
0A
#12625000000000
1!
1#
0$
b00000000000000000000000000000111 &
b000011000 '
b11111111111111111111111111111010 (
b00000000000000000000000010110010 )
1,
1.
b00000000000000000000000000000111 /
b11111111111111111111111111111010 0
b000011000 1
b000010111 2
b00000000000000000000000010110010 3
04
17
08
19
b11111111111111111111111111111110 :
1A
1D
b11111111111111111111111111111110 E
b00000000000000000000000010110010 G
1H
b00000000000000000000000000000011 J
b1111111111111111111111111111111111111111111111111111111111010011 K
b00000000000000000000000000000000000000000000000000000000000011111000 M
0O
1P
0Q
1R
0S
#12750000000000
0!
0%
0,
0A
#12875000000000
1!
0#
1$
1,
0.
14
07
18
09
b00000000000000000000000000000111 ;
b11111111111111111111111111111010 <
b000011000 =
b10101 @
1A
0D
b11111111111111111111111111111010 F
0H
b11111111111111111111111111111110 I
b1111111111111111111111111111111111111111111111111111111111100101 K
b00000000000000000000000000000000000000000000000000000000000011001011 L
b00000000000000000000000000000000000000000000000000000000000011111000 N
1O
0P
1Q
0R
1S
#13000000000000
0!
1%
0,
0A
#13125000000000
1!
1#
0$
b11111111111111111111111111110111 &
b000011001 '
b11111111111111111111111111110111 (
b00000000000000000000000011111000 )
1,
1.
b11111111111111111111111111110111 /
b11111111111111111111111111110111 0
b000011001 1
b000011000 2
b00000000000000000000000011111000 3
04
17
08
19
b00000000000000000000000000000111 :
1A
1D
b00000000000000000000000000000111 E
b00000000000000000000000011111000 G
1H
b11111111111111111111111111111010 J
b1111111111111111111111111111111111111111111111111111111111111010 K
b00000000000000000000000000000000000000000000000000000000000011001011 M
0O
1P
0Q
1R
0S
#13250000000000
0!
0%
0,
0A
#13375000000000
1!
0#
1$
1,
0.
14
07
18
09
b11111111111111111111111111110111 ;
b11111111111111111111111111110111 <
b000011001 =
b10110 @
1A
0D
b11111111111111111111111111110111 F
0H
b00000000000000000000000000000111 I
b0000000000000000000000000000000000000000000000000000000000001100 K
b00000000000000000000000000000000000000000000000000000000000011000101 L
b00000000000000000000000000000000000000000000000000000000000011001011 N
1O
0P
1Q
0R
1S
#13500000000000
0!
1%
0,
0A
#13625000000000
1!
1#
0$
b11111111111111111111111111111001 &
b000011010 '
b00000000000000000000000000000100 (
b00000000000000000000000011001011 )
1,
1.
b11111111111111111111111111111001 /
b00000000000000000000000000000100 0
b000011010 1
b000011001 2
b00000000000000000000000011001011 3
04
17
08
19
b11111111111111111111111111110111 :
1A
1D
b11111111111111111111111111110111 E
b00000000000000000000000011001011 G
1H
b11111111111111111111111111110111 J
b1111111111111111111111111111111111111111111111111111111111010110 K
b00000000000000000000000000000000000000000000000000000000000011000101 M
0O
1P
0Q
1R
0S
#13750000000000
0!
0%
0,
0A
